file_name,error,index,level_0,optimal_fe,optimal_mb
pattern1.csv,2.8502524662507724e-06,,,fe1,ann_model
pattern2.csv,7.052024131009423e-05,,,fe1,ann_model
lte_pattern.csv,0.0036095565769804997,,,fe1,ann_model
