0.0,10.9878724546
1.0,10.9329704819
2.0,11.0880693259
3.0,10.9864090173
4.0,11.0431407675
5.0,11.1790705381
6.0,11.1508002771
7.0,11.2381423969
8.0,11.3341745356
9.0,11.3689160261
10.0,11.3161248165
11.0,11.4530922051
12.0,11.4557242895
13.0,11.4911814763
14.0,11.7250416316
15.0,11.6920581194
16.0,11.7075456055
17.0,11.9304435459
18.0,11.9156577682
19.0,12.0659338593
20.0,12.0303794126
21.0,12.1313625013
22.0,12.3366928857
23.0,12.3146356436
24.0,12.6081744232
25.0,12.5774462474
26.0,12.6896529802
27.0,12.7893321736
28.0,12.9450099869
29.0,13.0731017378
30.0,13.2201744598
31.0,13.4094168043
32.0,13.4635192852
33.0,13.585233378
34.0,13.7941783824
35.0,14.0143955676
36.0,13.871957708
37.0,13.9157680106
38.0,13.735388466
39.0,13.6928308305
40.0,13.6499996067
41.0,13.4721459755
42.0,13.4815522917
43.0,13.3249186482
44.0,13.2877139315
45.0,13.1246929108
46.0,13.0439659806
47.0,12.9227351793
48.0,12.8042563404
49.0,12.6948792364
50.0,12.4687236674
51.0,12.2536047765
52.0,12.2011748927
53.0,11.9690150523
54.0,11.9006402992
55.0,11.9231709273
56.0,12.0189610318
57.0,12.0360305196
58.0,12.0507811552
59.0,12.0133594266
60.0,12.1453525656
61.0,12.2214880517
62.0,12.2460641633
63.0,12.2514561522
64.0,12.2802771654
65.0,12.3968138942
66.0,12.4263066698
67.0,12.3248598493
68.0,12.4825126722
69.0,12.4913089725
70.0,12.5201706721
71.0,12.6120404856
72.0,12.719586541
73.0,12.6875049754
74.0,12.7140897528
75.0,12.7373546362
76.0,12.8413945618
77.0,12.8670643863
78.0,12.982092225
79.0,12.944244753
80.0,13.0973237746
81.0,13.2154223142
82.0,13.1255420787
83.0,13.2795112043
84.0,13.3421323835
85.0,13.3639273461
86.0,13.4758861159
87.0,13.597180781
88.0,13.6429577609
89.0,13.7187027437
90.0,13.7056272909
91.0,13.8664379153
92.0,13.8333291266
93.0,13.9573096382
94.0,14.1825495365
95.0,14.1824332971
96.0,14.2693764127
97.0,14.3428290334
98.0,14.5465807152
99.0,14.6176680024
100.0,14.5947000615
101.0,14.7393448195
102.0,14.8457786618
103.0,14.9683887854
104.0,15.0612864801
105.0,15.3193711454
106.0,15.4705791398
107.0,15.4211775805
108.0,15.7147273925
109.0,15.6924605013
110.0,15.9049282497
111.0,16.0137453007
112.0,16.1740570839
113.0,16.3573530383
114.0,16.4153243198
115.0,16.3588721548
116.0,16.3127852164
117.0,16.2152313526
118.0,16.0685891525
119.0,15.9235523471
120.0,15.9145657761
121.0,15.8485452507
122.0,15.7278892619
123.0,15.6292915236
124.0,15.4205489216
125.0,15.3486900007
126.0,15.2177342784
127.0,15.0540670877
128.0,14.937306323
129.0,14.7647742457
130.0,14.7084786164
131.0,14.4493115899
132.0,14.3338255107
133.0,14.2133332661
134.0,13.9791561984
135.0,13.734542724
136.0,13.3971729951
137.0,13.196794181
138.0,12.8545314603
139.0,12.7087479897
140.0,12.3133093174
141.0,12.062983444
142.0,11.7484276162
143.0,11.4200655434
144.0,11.1499601017
145.0,11.1841319076
146.0,11.1752480549
147.0,11.3974424133
148.0,11.4457336046
149.0,11.3140095808
150.0,11.4403159363
151.0,11.5516970965
152.0,11.5323216439
153.0,11.6091336988
154.0,11.7166263227
155.0,11.8207772221
156.0,11.7043469513
157.0,11.9065372293
158.0,11.8882179844
159.0,11.9733889468
160.0,12.0323572693
161.0,12.1121177872
162.0,12.2508606876
163.0,12.341140371
164.0,12.3685717773
165.0,12.4856168959
166.0,12.6071824724
167.0,12.6822383013
168.0,12.8463094761
169.0,12.8825722811
170.0,12.896014655
171.0,13.0402466454
172.0,13.262828635
173.0,13.3754350578
174.0,13.4537497355
175.0,13.5304030523
176.0,13.7002562818
177.0,13.8567417974
178.0,14.0255187552
179.0,14.2224720727
180.0,14.1743100878
181.0,13.9981103595
182.0,13.9101140796
183.0,13.8513666715
184.0,13.7715932718
185.0,13.7712389613
186.0,13.5810832772
187.0,13.5213728339
188.0,13.4140913741
189.0,13.272896887
190.0,13.2160340529
191.0,13.0255853458
192.0,12.9724853134
193.0,12.7671739334
194.0,12.6106706429
195.0,12.5636071582
196.0,12.2638656882
197.0,12.2634288745
198.0,12.1983835804
199.0,12.2696774392
200.0,12.2390385102
201.0,12.2658558329
202.0,12.296087447
203.0,12.3373703706
204.0,12.3617608811
205.0,12.3695909068
206.0,12.4503154243
207.0,12.4396491101
208.0,12.4424744859
209.0,12.52094641
210.0,12.6654615605
211.0,12.6583440119
212.0,12.714620695
213.0,12.6431294353
214.0,12.7595895917
215.0,12.7394478707
216.0,12.7754957919
217.0,12.9897279099
218.0,12.9365926548
219.0,12.9132712113
220.0,13.0443643467
221.0,13.2109883092
222.0,13.1222583415
223.0,13.1823176128
224.0,13.2503822307
225.0,13.3432905952
226.0,13.4745167102
227.0,13.4164804359
228.0,13.5529005059
229.0,13.5245290023
230.0,13.7252898476
231.0,13.8327445238
232.0,13.8601689135
233.0,13.9696933728
234.0,14.0387306544
235.0,13.9957540529
236.0,14.0895289083
237.0,14.3184912881
238.0,14.3572608083
239.0,14.4654079248
240.0,14.4889861426
241.0,14.5425052374
242.0,14.7927542212
243.0,14.909960089
244.0,14.8293338168
245.0,15.000153571
246.0,15.085574688
247.0,15.3350904704
248.0,15.4563248564
249.0,15.5593383107
250.0,15.6836520223
251.0,15.8532973366
252.0,15.9851903449
253.0,16.0821961998
254.0,16.164927379
255.0,16.400583988
256.0,16.4866935956
257.0,16.5653671887
258.0,16.5417461249
259.0,16.5211709498
260.0,16.5402379689
261.0,16.4415689679
262.0,16.2721135942
263.0,16.2224562022
264.0,16.1742474217
265.0,16.0953719634
266.0,16.0472387246
267.0,15.9211775336
268.0,15.7803904921
269.0,15.6397572418
270.0,15.4949427284
271.0,15.362572949
272.0,15.2689841152
273.0,15.1253835222
274.0,14.9513047884
275.0,14.6054114726
276.0,14.4673786181
277.0,14.3682157402
278.0,14.1452355339
279.0,13.8485279003
280.0,13.5966090946
281.0,13.4447261357
282.0,13.0138226296
283.0,12.7436222553
284.0,12.504279398
285.0,12.1511782419
286.0,11.819031523
287.0,11.3871803566
288.0,10.8090188749
289.0,11.0265367793
290.0,11.0539950432
291.0,11.0139845721
292.0,11.13849528
293.0,11.2075745494
294.0,11.1866214176
295.0,11.242918111
296.0,11.267235732
297.0,11.2784578152
298.0,11.3918372299
299.0,11.5201225314
300.0,11.5060340319
301.0,11.6710502447
302.0,11.6518713059
303.0,11.7768613718
304.0,11.8367861394
305.0,11.8767928782
306.0,11.9511086214
307.0,12.1329797017
308.0,12.1329210054
309.0,12.2873933179
310.0,12.2977143124
311.0,12.3441409288
312.0,12.617233681
313.0,12.5444736445
314.0,12.7002531853
315.0,12.9346774616
316.0,12.8897252988
317.0,13.2103790883
318.0,13.2101169599
319.0,13.333615326
320.0,13.4972711452
321.0,13.6152814297
322.0,13.9147876641
323.0,14.0045686832
324.0,14.073480453
325.0,13.8355767965
326.0,13.8282906077
327.0,13.7419533742
328.0,13.6596386415
329.0,13.6103004138
330.0,13.5029832104
331.0,13.3971635792
332.0,13.2545236022
333.0,13.1413213572
334.0,12.9767468102
335.0,12.8132128282
336.0,12.6918395754
337.0,12.5368153098
338.0,12.3776075613
339.0,12.3306043054
340.0,12.131748635
341.0,11.8999627569
342.0,11.9219874443
343.0,11.799296593
344.0,11.8565914746
345.0,11.9724733394
346.0,11.9558957436
347.0,11.988769879
348.0,11.9414531821
349.0,12.0776345828
350.0,12.0606784754
351.0,12.0700653526
352.0,12.1443814092
353.0,12.2111438495
354.0,12.2240408913
355.0,12.2961204233
356.0,12.2779861936
357.0,12.2840783302
358.0,12.4064738271
359.0,12.3961718076
360.0,12.4482770798
361.0,12.4866767889
362.0,12.5391993771
363.0,12.7375377389
364.0,12.7147470782
365.0,12.7941370645
366.0,12.887293721
367.0,12.9261195491
368.0,12.8903286668
369.0,12.9610385017
370.0,13.0368093061
371.0,13.0896654912
372.0,13.2085640945
373.0,13.3682765397
374.0,13.4709252318
375.0,13.418304855
376.0,13.5435819709
377.0,13.5678031331
378.0,13.7862022006
379.0,13.7372062414
380.0,13.9086260464
381.0,13.9379547619
382.0,13.9935559868
383.0,14.0523267654
384.0,14.3311206442
385.0,14.25661787
386.0,14.4618384548
387.0,14.5638831662
388.0,14.6771720628
389.0,14.8614391351
390.0,14.9311246747
391.0,15.0309236691
392.0,15.1829771366
393.0,15.3401041178
394.0,15.4603190272
395.0,15.4488898011
396.0,15.6712929757
397.0,15.736355372
398.0,15.8812871453
399.0,16.2072585035
400.0,16.3447627523
401.0,16.3697182283
402.0,16.3619477891
403.0,16.3278200834
404.0,16.3471258862
405.0,16.1908295653
406.0,16.1603481241
407.0,16.1239064528
408.0,16.0471842919
409.0,15.7836918405
410.0,15.8215826767
411.0,15.5901639179
412.0,15.5044391972
413.0,15.3733161715
414.0,15.350514499
415.0,15.199471002
416.0,15.0903130994
417.0,14.8175273694
418.0,14.7421058539
419.0,14.5413275635
420.0,14.2989340316
421.0,14.0445624982
422.0,13.8243744749
423.0,13.6687024453
424.0,13.38173103
425.0,13.1577297442
426.0,12.9812326247
427.0,12.6235567704
428.0,12.3758059196
429.0,12.0619764767
430.0,11.6329965228
431.0,11.3328685856
432.0,10.94485459
433.0,10.9032786412
434.0,11.0708036226
435.0,11.1558821787
436.0,11.1146147857
437.0,11.2171015932
438.0,11.2677107436
439.0,11.2799839374
440.0,11.3173476424
441.0,11.2985672042
442.0,11.3856818637
443.0,11.5231600268
444.0,11.5078468772
445.0,11.5872127756
446.0,11.7565319635
447.0,11.7513980929
448.0,11.776131686
449.0,11.9753304167
450.0,11.955009446
451.0,12.1527746397
452.0,12.1721656979
453.0,12.3040989434
454.0,12.4929585387
455.0,12.5923025387
456.0,12.6782191986
457.0,12.73282995
458.0,12.86500431
459.0,12.9832145938
460.0,12.9905204498
461.0,13.2523844726
462.0,13.2379804781
463.0,13.3984408849
464.0,13.6610361661
465.0,13.7481836723
466.0,13.8416837864
467.0,13.9990755511
468.0,14.1371963164
469.0,14.0735828307
470.0,13.9951463127
471.0,13.8366695193
472.0,13.7643710541
473.0,13.7811481848
474.0,13.5800639579
475.0,13.4999077159
476.0,13.3476262268
477.0,13.3330298897
478.0,13.2038732415
479.0,13.0340265952
480.0,13.007271422
481.0,12.8367157907
482.0,12.6560042139
483.0,12.4306933325
484.0,12.2768379525
485.0,12.1194460454
486.0,12.0320059081
487.0,12.0106130128
488.0,12.2164966102
489.0,12.1852931355
490.0,12.130538022
491.0,12.3156106813
492.0,12.2152626649
493.0,12.2235937873
494.0,12.3291343731
495.0,12.4051607388
496.0,12.3405678722
497.0,12.5334446618
498.0,12.5541121186
499.0,12.5456490504
500.0,12.6069668243
501.0,12.5172657547
502.0,12.608294655
503.0,12.6079263185
504.0,12.6619536501
505.0,12.8658218376
506.0,12.9106600819
507.0,12.990573345
508.0,12.8532105662
509.0,13.0348558871
510.0,13.0570239022
511.0,13.0410233534
512.0,13.2766075854
513.0,13.213987141
514.0,13.2528555571
515.0,13.2903071797
516.0,13.4756759068
517.0,13.6051540076
518.0,13.5988302869
519.0,13.6352753814
520.0,13.6989851368
521.0,13.7745244135
522.0,13.7912122711
523.0,13.9843508916
524.0,14.0200888115
525.0,14.2180380635
526.0,14.2477837621
527.0,14.4016409463
528.0,14.4563745492
529.0,14.5276454116
530.0,14.6133606332
531.0,14.7959505803
532.0,14.8754684406
533.0,14.8662840997
534.0,15.0028378533
535.0,15.2024491391
536.0,15.2063377024
537.0,15.4675510417
538.0,15.5735325598
539.0,15.7346521685
540.0,15.8000087541
541.0,16.017504799
542.0,15.9941397032
543.0,16.2037107105
544.0,16.3839928611
545.0,16.5314465356
546.0,16.5596337263
547.0,16.4683987818
548.0,16.2898882709
549.0,16.3012698737
550.0,16.2934900568
551.0,16.1908573388
552.0,16.0252191083
553.0,15.8420880093
554.0,15.8045237521
555.0,15.6735012548
556.0,15.5811030317
557.0,15.4211414652
558.0,15.3920236634
559.0,15.1271986258
560.0,14.932125361
561.0,14.8514088818
562.0,14.7479323268
563.0,14.5524857793
564.0,14.1949860775
565.0,14.0644041772
566.0,13.7716236427
567.0,13.5382102174
568.0,13.2785870445
569.0,13.0599110373
570.0,12.6444314126
571.0,12.3517702522
572.0,11.9588310445
573.0,11.6173070527
574.0,11.3447249061
575.0,10.790103054
576.0,11.0311015172
577.0,11.0371912629
578.0,11.0662358299
579.0,11.202525201
580.0,11.2050273477
581.0,11.2636912726
582.0,11.2480146209
583.0,11.2803538684
584.0,11.3172987398
585.0,11.4749136563
586.0,11.5787429903
587.0,11.5841777807
588.0,11.7429616797
589.0,11.7693227271
590.0,11.8531233944
591.0,11.8125356541
592.0,11.9739394514
593.0,11.9602672702
594.0,12.1713741356
595.0,12.1416644823
596.0,12.3688418798
597.0,12.298563184
598.0,12.3983994249
599.0,12.6641365948
600.0,12.6092492214
601.0,12.8231157108
602.0,12.8582864013
603.0,13.0993824378
604.0,13.106862846
605.0,13.1817048055
606.0,13.3715114551
607.0,13.5401984399
608.0,13.7494879816
609.0,13.925400787
610.0,14.0669081124
611.0,14.2072246945
612.0,14.1323846334
613.0,14.0838429921
614.0,14.1223166559
615.0,14.0419385734
616.0,13.9155422687
617.0,13.6670828014
618.0,13.6567519499
619.0,13.4998357382
620.0,13.5283915417
621.0,13.2539012819
622.0,13.0881850456
623.0,13.1050129899
624.0,12.8803752603
625.0,12.7558451631
626.0,12.5747700837
627.0,12.3537988316
628.0,12.1985450832
629.0,11.8663629512
630.0,11.9056635559
631.0,11.8662157932
632.0,11.9934951981
633.0,11.9487955756
634.0,11.9648065365
635.0,12.0984001218
636.0,12.0417472616
637.0,12.1283420967
638.0,12.2061546307
639.0,12.1688866586
640.0,12.2348472248
641.0,12.2710828923
642.0,12.2610740828
643.0,12.4612444164
644.0,12.356054284
645.0,12.5377605551
646.0,12.5594521828
647.0,12.4905610191
648.0,12.6451411606
649.0,12.5615432314
650.0,12.6387332627
651.0,12.673025611
652.0,12.8178986205
653.0,12.8453745903
654.0,12.8664853182
655.0,13.0383151213
656.0,13.0288296157
657.0,13.1770999188
658.0,13.2418623801
659.0,13.2097636247
660.0,13.274665626
661.0,13.3591808681
662.0,13.4793456912
663.0,13.4912527656
664.0,13.6287619039
665.0,13.6127421799
666.0,13.821326862
667.0,13.8061849678
668.0,13.9760769916
669.0,13.9762476473
670.0,13.9974720741
671.0,14.1744005422
672.0,14.3664179297
673.0,14.2974487681
674.0,14.4796523612
675.0,14.5555605522
676.0,14.6309327904
677.0,14.7099781674
678.0,14.837710695
679.0,14.9571710382
680.0,15.2073986436
681.0,15.2533733428
682.0,15.328806633
683.0,15.431246911
684.0,15.6702827801
685.0,15.6888928475
686.0,15.8370891509
687.0,16.0001416634
688.0,16.3244170852
689.0,16.2820987693
690.0,16.3106718298
691.0,16.3471322401
692.0,16.1675824481
693.0,16.2169740523
694.0,16.0638739028
695.0,16.1190682851
696.0,16.0332528075
697.0,15.8103073411
698.0,15.8419738759
699.0,15.6327469377
700.0,15.5482652486
701.0,15.3718795489
702.0,15.1995943707
703.0,15.2344759062
704.0,14.93443429
705.0,14.8884645067
706.0,14.6808936786
707.0,14.5369209846
708.0,14.4584047789
709.0,14.2475108877
710.0,13.9793008819
711.0,13.7486199767
712.0,13.5990595561
713.0,13.3062385392
714.0,13.0997670874
715.0,12.7599674965
716.0,12.5635201407
717.0,12.2733791935
718.0,11.8763645206
719.0,11.5153146499
720.0,10.9561881486
721.0,10.9526111856
722.0,11.1041372028
723.0,10.9843254241
724.0,11.1077929481
725.0,11.1048593627
726.0,11.1633722022
727.0,11.2773335541
728.0,11.3700769091
729.0,11.3396081562
730.0,11.5242856574
731.0,11.5606997942
732.0,11.6194356188
733.0,11.6483390591
734.0,11.6344409401
735.0,11.7616833008
736.0,11.7591075533
737.0,11.8952212781
738.0,11.9408867263
739.0,12.0945040606
740.0,12.1589644044
741.0,12.3590767121
742.0,12.4209851928
743.0,12.5450589868
744.0,12.6555388855
745.0,12.7487726971
746.0,12.8518320798
747.0,12.9330554424
748.0,12.9776307033
749.0,13.1434721486
750.0,13.3236637227
751.0,13.4181271456
752.0,13.6189997656
753.0,13.7092657081
754.0,13.8055283513
755.0,13.9741063939
756.0,14.0407786049
757.0,13.9964023622
758.0,13.9282468163
759.0,13.7296871891
760.0,13.7711933229
761.0,13.6510466098
762.0,13.4789515011
763.0,13.4477923943
764.0,13.4068139752
765.0,13.3006477099
766.0,13.1500655517
767.0,13.0589432011
768.0,12.9600435188
769.0,12.7764419768
770.0,12.5261107013
771.0,12.5170322729
772.0,12.3495507777
773.0,12.0913416991
774.0,12.0751950626
775.0,12.1431138098
776.0,12.1921931269
777.0,12.16436551
778.0,12.215555665
779.0,12.1720838882
780.0,12.3912505583
781.0,12.3373490259
782.0,12.3025789644
783.0,12.4535357809
784.0,12.4161410082
785.0,12.4930126679
786.0,12.6201183091
787.0,12.4753719769
788.0,12.6811354631
789.0,12.5910754931
790.0,12.7164267188
791.0,12.7564588692
792.0,12.7215095268
793.0,12.8821639494
794.0,12.9510846116
795.0,12.9319122759
796.0,12.9252589233
797.0,13.1267889257
798.0,13.1638769688
799.0,13.2411592273
800.0,13.2090917673
801.0,13.2884349575
802.0,13.4014668141
803.0,13.4177624409
804.0,13.4145657566
805.0,13.4840120172
806.0,13.7355589013
807.0,13.7027204433
808.0,13.8757244418
809.0,13.9648352656
810.0,13.9530487818
811.0,14.0672058877
812.0,14.1232639225
813.0,14.2648296475
814.0,14.2625586439
815.0,14.383496372
816.0,14.4210673589
817.0,14.5075067034
818.0,14.6169492765
819.0,14.7684120835
820.0,14.8473190334
821.0,14.9989002176
822.0,15.0740450161
823.0,15.2632048131
824.0,15.3095128416
825.0,15.4682432473
826.0,15.7003778156
827.0,15.814975622
828.0,15.9541174812
829.0,16.0326637486
830.0,16.2224898744
831.0,16.2340680532
832.0,16.4871790345
833.0,16.6332602131
834.0,16.6965699167
835.0,16.6638474156
836.0,16.5002196488
837.0,16.3290902352
838.0,16.2594941304
839.0,16.2062725723
840.0,16.1016034538
841.0,16.0553391951
842.0,15.9577376099
843.0,15.8111937133
844.0,15.5799808351
845.0,15.5726998421
846.0,15.3494485856
847.0,15.2412503291
848.0,14.9652941629
849.0,14.8806212436
850.0,14.7367578391
851.0,14.4083235156
852.0,14.1974648678
853.0,14.0795938117
854.0,13.7631386419
855.0,13.4680311915
856.0,13.1107349658
857.0,12.8730966296
858.0,12.4672009283
859.0,12.2600603192
860.0,11.8129316021
861.0,11.4684126084
862.0,10.9322237973
863.0,10.4901895546
864.0,10.9532165983
865.0,11.003445398
866.0,11.0261067064
867.0,11.0449961827
868.0,11.0607441153
869.0,11.0696665773
870.0,11.1758290213
871.0,11.1390668463
872.0,11.1693478207
873.0,11.3825988953
874.0,11.4695692114
875.0,11.5205647127
876.0,11.493123726
877.0,11.4864014758
878.0,11.6499217462
879.0,11.7682187026
880.0,11.8794256323
881.0,11.8370531923
882.0,11.9076971897
883.0,12.0862559538
884.0,12.1347246286
885.0,12.3065320133
886.0,12.2663166266
887.0,12.3858163814
888.0,12.5673679568
889.0,12.7122175518
890.0,12.794357129
891.0,12.8741139167
892.0,13.0044717778
893.0,13.2313585858
894.0,13.2438109823
895.0,13.4081327415
896.0,13.5530101734
897.0,13.664408854
898.0,13.8975864296
899.0,13.9574198709
900.0,14.1362467238
901.0,13.9079328909
902.0,13.8229382739
903.0,13.8720736881
904.0,13.8140213543
905.0,13.6290412848
906.0,13.6195110193
907.0,13.4778195412
908.0,13.3194564538
909.0,13.2042602215
910.0,13.0577475332
911.0,13.0580434133
912.0,12.9261379129
913.0,12.8236588397
914.0,12.5567349842
915.0,12.3184604909
916.0,12.143222497
917.0,12.1424946692
918.0,12.0851063459
919.0,12.1339106481
920.0,12.1845743366
921.0,12.2076756528
922.0,12.2372991278
923.0,12.2070630291
924.0,12.3212153386
925.0,12.2269896707
926.0,12.4018946657
927.0,12.3124392314
928.0,12.3040547011
929.0,12.4617991707
930.0,12.4973174462
931.0,12.5606715944
932.0,12.4825254525
933.0,12.5702958422
934.0,12.6242089982
935.0,12.6980914504
936.0,12.6872255015
937.0,12.8318392777
938.0,12.9001786835
939.0,12.9755764373
940.0,12.969960494
941.0,12.8983642861
942.0,13.0726848844
943.0,13.0324977034
944.0,13.164410322
945.0,13.1875648793
946.0,13.3787050429
947.0,13.3856337047
948.0,13.4978887107
949.0,13.5180135391
950.0,13.5370055515
951.0,13.6831332872
952.0,13.7495257881
953.0,13.7544060944
954.0,13.809745499
955.0,13.9755753091
956.0,13.9911378945
957.0,14.0699881516
958.0,14.2662613376
959.0,14.3278237663
960.0,14.3024921269
961.0,14.460208552
962.0,14.6741623261
963.0,14.7399514341
964.0,14.7311902319
965.0,14.8874513148
966.0,14.9784345623
967.0,15.1691404091
968.0,15.248392237
969.0,15.3331433384
970.0,15.5573991957
971.0,15.553953466
972.0,15.8613416321
973.0,15.8438414038
974.0,15.9931566004
975.0,16.1031290094
976.0,16.2527624353
977.0,16.4192730759
978.0,16.440862329
979.0,16.4614323483
980.0,16.3755060553
981.0,16.2766289326
982.0,16.1501358132
983.0,16.0493575106
984.0,16.11416314
985.0,16.0383533391
986.0,15.7523062055
987.0,15.6477049179
988.0,15.5500356588
989.0,15.4938170088
990.0,15.3924686765
991.0,15.2556203575
992.0,15.0385687005
993.0,15.0085696429
994.0,14.8646605274
995.0,14.5046070419
996.0,14.4647525338
997.0,14.3155448444
998.0,14.0335955703
999.0,13.7199193081
1000.0,13.4784020664
1001.0,13.3436505425
1002.0,13.0815468643
1003.0,12.7671922332
1004.0,12.3600558544
1005.0,12.0895256418
1006.0,11.7767549091
1007.0,11.3994368606
1008.0,11.2252960792
1009.0,11.1832767166
1010.0,11.2315114766
1011.0,11.3497350344
1012.0,11.3892536483
1013.0,11.2932014402
1014.0,11.4663536363
1015.0,11.4000414399
1016.0,11.5077784878
1017.0,11.6040159884
1018.0,11.5702503625
1019.0,11.752308224
1020.0,11.6663173108
1021.0,11.7590934139
1022.0,11.8160441006
1023.0,11.9107684642
1024.0,12.0581719835
1025.0,12.0371698398
1026.0,12.2594955052
1027.0,12.2950886068
1028.0,12.3634643941
1029.0,12.3940809441
1030.0,12.4762370515
1031.0,12.5592415287
1032.0,12.7535306741
1033.0,12.7248940396
1034.0,12.8108667918
1035.0,12.9254130516
1036.0,13.1053011009
1037.0,13.162545697
1038.0,13.3951357812
1039.0,13.4509618039
1040.0,13.6002531364
1041.0,13.6772456042
1042.0,13.9065370366
1043.0,14.116807374
1044.0,14.1038319496
1045.0,13.9945411954
1046.0,14.0153573208
1047.0,13.8693937382
1048.0,13.6832755483
1049.0,13.6173717035
1050.0,13.6353591898
1051.0,13.5403062575
1052.0,13.4195088426
1053.0,13.1933928791
1054.0,13.0637578892
1055.0,12.940761681
1056.0,12.7798356001
1057.0,12.7833532057
1058.0,12.6018335668
1059.0,12.4263075265
1060.0,12.1549351703
1061.0,11.9639383613
1062.0,11.9537660816
1063.0,12.0924141731
1064.0,12.1743288123
1065.0,12.1136316887
1066.0,12.1515663222
1067.0,12.2737155824
1068.0,12.1288813924
1069.0,12.3149348082
1070.0,12.2755165279
1071.0,12.3861366142
1072.0,12.3857448129
1073.0,12.4774260664
1074.0,12.4542236205
1075.0,12.5132088134
1076.0,12.4801810477
1077.0,12.5601429406
1078.0,12.667992275
1079.0,12.5787867127
1080.0,12.7525366648
1081.0,12.7158230624
1082.0,12.8831961195
1083.0,12.8764889691
1084.0,12.9279119227
1085.0,12.9277384954
1086.0,13.0095140119
1087.0,13.0583348522
1088.0,13.0386309351
1089.0,13.2653621724
1090.0,13.3313247812
1091.0,13.261476974
1092.0,13.4558096648
1093.0,13.3652321727
1094.0,13.4534036726
1095.0,13.6426389286
1096.0,13.570668379
1097.0,13.7000989642
1098.0,13.8606174896
1099.0,13.9456580538
1100.0,13.9807761033
1101.0,14.1209125168
1102.0,14.1919995081
1103.0,14.306977839
1104.0,14.4224777577
1105.0,14.4662754896
1106.0,14.5890116466
1107.0,14.6270317941
1108.0,14.6449539497
1109.0,14.8181271402
1110.0,15.0392753867
1111.0,15.0472524743
1112.0,15.2600175386
1113.0,15.3669242102
1114.0,15.3397854151
1115.0,15.4879165658
1116.0,15.6448945824
1117.0,15.8918362183
1118.0,16.0137875724
1119.0,16.1702902406
1120.0,16.2811494814
1121.0,16.4716981201
1122.0,16.4740977177
1123.0,16.2234994612
1124.0,16.2452658023
1125.0,16.2241298777
1126.0,16.129903735
1127.0,15.9539589091
1128.0,15.9945682071
1129.0,15.8513341979
1130.0,15.6333335857
1131.0,15.5931887462
1132.0,15.4854201662
1133.0,15.2398474631
1134.0,15.1457587799
1135.0,15.1199848701
1136.0,14.8257402956
1137.0,14.7179992445
1138.0,14.4362408959
1139.0,14.2663492315
1140.0,14.126411123
1141.0,13.9449009082
1142.0,13.7259626025
1143.0,13.3289434636
1144.0,13.0536305823
1145.0,12.8210698848
1146.0,12.4989319521
1147.0,12.2540605625
1148.0,11.8245109947
1149.0,11.3927834171
1150.0,11.0107252098
1151.0,10.5096219305
1152.0,11.0052420375
1153.0,11.0880556466
1154.0,11.126457842
1155.0,11.2117911551
1156.0,11.142996246
1157.0,11.2447392569
1158.0,11.2100824467
1159.0,11.2288306257
1160.0,11.4082389925
1161.0,11.520551025
1162.0,11.4497046711
1163.0,11.4903471837
1164.0,11.5152244946
1165.0,11.6311069174
1166.0,11.6795995069
1167.0,11.7559636877
1168.0,11.9458467239
1169.0,12.0318841716
1170.0,11.9753020921
1171.0,12.0600040915
1172.0,12.2162000412
1173.0,12.2945725592
1174.0,12.3940190836
1175.0,12.3957760537
1176.0,12.5817569836
1177.0,12.7259262426
1178.0,12.8862554285
1179.0,12.8260391774
1180.0,13.0629653683
1181.0,13.1448463591
1182.0,13.1930712761
1183.0,13.4620773318
1184.0,13.4703947514
1185.0,13.6281956632
1186.0,13.8584719404
1187.0,13.9361666845
1188.0,13.9855468205
1189.0,13.9855551757
1190.0,13.7997614293
1191.0,13.7523758321
1192.0,13.6121450519
1193.0,13.5760196162
1194.0,13.4500373541
1195.0,13.3216906223
1196.0,13.2987697763
1197.0,13.1398612468
1198.0,12.9060984118
1199.0,12.8680880586
1200.0,12.6811250233
1201.0,12.4513840697
1202.0,12.2379769934
1203.0,12.1406209406
1204.0,11.9093669842
1205.0,11.6803143498
1206.0,11.6077371598
1207.0,11.6107794179
1208.0,11.6406568991
1209.0,11.6805555235
1210.0,11.7346050159
1211.0,11.7079658404
1212.0,11.7352750359
1213.0,11.8506852838
1214.0,11.9446801895
1215.0,11.9953139074
1216.0,11.9224122961
1217.0,12.0488040113
1218.0,12.0380343047
1219.0,12.0677882365
1220.0,12.0952166876
1221.0,12.1856811309
1222.0,12.1783213677
1223.0,12.3168104295
1224.0,12.3555619178
1225.0,12.283833415
1226.0,12.4101056953
1227.0,12.3736526906
1228.0,12.4520264829
1229.0,12.4558300613
1230.0,12.6067358501
1231.0,12.6514420168
1232.0,12.6443987704
1233.0,12.7823451648
1234.0,12.8565216197
1235.0,12.9391053216
1236.0,13.05127355
1237.0,13.0653881353
1238.0,13.12738637
1239.0,13.1999397
1240.0,13.1685389475
1241.0,13.337844477
1242.0,13.4420089678
1243.0,13.5129987112
1244.0,13.5232088497
1245.0,13.6262786961
1246.0,13.7434104752
1247.0,13.7846997327
1248.0,13.8589409327
1249.0,14.023099548
1250.0,14.1511727846
1251.0,14.2542009374
1252.0,14.2852506978
1253.0,14.4747782808
1254.0,14.5853868356
1255.0,14.5209993819
1256.0,14.64201468
1257.0,14.7825718938
1258.0,14.8841002923
1259.0,15.1632275742
1260.0,15.2133811135
1261.0,15.4270742498
1262.0,15.3921646355
1263.0,15.6813903669
1264.0,15.8040558516
1265.0,15.993930481
1266.0,15.8522719235
1267.0,15.777545649
1268.0,15.8398673607
1269.0,15.6583899119
1270.0,15.6864727536
1271.0,15.54942557
1272.0,15.4190836303
1273.0,15.338061091
1274.0,15.1705449747
1275.0,15.1427760271
1276.0,14.8594943322
1277.0,14.8650022825
1278.0,14.7299815775
1279.0,14.6004528288
1280.0,14.3527048908
1281.0,14.2410706132
1282.0,13.947944235
1283.0,13.8171759627
1284.0,13.6557633185
1285.0,13.4465357745
1286.0,13.1619928293
1287.0,12.9052930968
1288.0,12.6061789949
1289.0,12.327205249
1290.0,12.0604501492
1291.0,11.534529418
1292.0,11.1662441785
1293.0,10.8336254856
1294.0,10.3596590048
1295.0,9.9557223166
1296.0,11.1910096114
1297.0,11.1687444179
1298.0,11.2029556073
1299.0,11.1684022652
1300.0,11.3010703829
1301.0,11.3262582773
1302.0,11.4244362221
1303.0,11.383237058
1304.0,11.4223632911
1305.0,11.5893642021
1306.0,11.5084198646
1307.0,11.700124945
1308.0,11.6878932618
1309.0,11.8290628394
1310.0,11.892724236
1311.0,11.9954347461
1312.0,12.0362060803
1313.0,11.9861288459
1314.0,12.0909072507
1315.0,12.3039252088
1316.0,12.3816418427
1317.0,12.3702187223
1318.0,12.4384452183
1319.0,12.4818060469
1320.0,12.7539032199
1321.0,12.7990970148
1322.0,12.914522478
1323.0,12.9076170205
1324.0,13.2197666311
1325.0,13.3368780187
1326.0,13.3093144066
1327.0,13.547971602
1328.0,13.6871167021
1329.0,13.8545850557
1330.0,13.923313696
1331.0,14.0179256513
1332.0,14.1352953107
1333.0,13.9683821033
1334.0,14.0454091199
1335.0,13.8014262563
1336.0,13.8119737438
1337.0,13.7196905443
1338.0,13.6858089995
1339.0,13.4912399473
1340.0,13.3115912498
1341.0,13.3162978596
1342.0,13.1981476937
1343.0,13.0334097465
1344.0,12.8399108613
1345.0,12.6215794735
1346.0,12.5286390062
1347.0,12.2488929257
1348.0,12.0879432887
1349.0,11.8658425664
1350.0,11.9190684651
1351.0,12.0339829189
1352.0,11.997277288
1353.0,12.0049300964
1354.0,12.0654921565
1355.0,12.1062254186
1356.0,12.1681529378
1357.0,12.1833753234
1358.0,12.1786850366
1359.0,12.3222740448
1360.0,12.304783921
1361.0,12.4165278619
1362.0,12.2624456756
1363.0,12.3334619611
1364.0,12.3456633732
1365.0,12.434648697
1366.0,12.6217902466
1367.0,12.6148010257
1368.0,12.5249133223
1369.0,12.6857735322
1370.0,12.671739223
1371.0,12.8217421893
1372.0,12.7611224375
1373.0,12.8137791046
1374.0,12.8840787863
1375.0,12.916089368
1376.0,13.0699821139
1377.0,13.0833076192
1378.0,13.119225314
1379.0,13.1695192269
1380.0,13.2137033144
1381.0,13.3348081372
1382.0,13.4835962353
1383.0,13.5787261634
1384.0,13.6702492277
1385.0,13.5519022195
1386.0,13.6908829548
1387.0,13.7624286649
1388.0,13.8095531602
1389.0,13.9647139071
1390.0,14.07128458
1391.0,14.2313019262
1392.0,14.2179276675
1393.0,14.4257417236
1394.0,14.4452866971
1395.0,14.6091046883
1396.0,14.674260688
1397.0,14.7228545554
1398.0,14.8994703774
1399.0,14.8855225044
1400.0,15.1120965835
1401.0,15.1765353108
1402.0,15.3742337442
1403.0,15.4924905577
1404.0,15.6619133978
1405.0,15.7837817377
1406.0,15.9248663556
1407.0,16.0252949103
1408.0,16.1606749796
1409.0,16.2263253208
1410.0,16.2940666037
1411.0,16.1593452923
1412.0,16.0814204306
1413.0,16.0608563039
1414.0,16.0208349749
1415.0,15.8493505196
1416.0,15.8511063374
1417.0,15.7320216789
1418.0,15.7026835759
1419.0,15.6197923808
1420.0,15.4705285528
1421.0,15.3643809779
1422.0,15.2715002468
1423.0,15.0962988491
1424.0,15.0035777346
1425.0,14.9152245885
1426.0,14.7003975163
1427.0,14.5212044772
1428.0,14.3762370547
1429.0,14.0802991249
1430.0,13.8858008108
1431.0,13.7133151788
1432.0,13.4754193168
1433.0,13.2584353818
1434.0,13.0027996918
1435.0,12.808983444
1436.0,12.450786187
1437.0,12.2005524012
1438.0,11.9952087825
1439.0,11.6203206223
1440.0,10.9449079911
1441.0,11.101846296
1442.0,11.0173978472
1443.0,11.0516724414
1444.0,11.2135346464
1445.0,11.1810641237
1446.0,11.2036085152
1447.0,11.3164664297
1448.0,11.4083809024
1449.0,11.3795037865
1450.0,11.4071483107
1451.0,11.4691102927
1452.0,11.6814466116
1453.0,11.6156998676
1454.0,11.700919737
1455.0,11.8660576118
1456.0,11.8993499825
1457.0,12.0104370126
1458.0,12.1250658467
1459.0,12.0942791148
1460.0,12.171074779
1461.0,12.360377316
1462.0,12.4786318022
1463.0,12.5939181917
1464.0,12.5290626689
1465.0,12.6259173329
1466.0,12.9195621662
1467.0,12.9296028279
1468.0,13.0135273239
1469.0,13.2623595781
1470.0,13.3597694829
1471.0,13.429723092
1472.0,13.6319742165
1473.0,13.6962171404
1474.0,13.8890003295
1475.0,14.0414074091
1476.0,14.0212247213
1477.0,13.8932887289
1478.0,13.946824873
1479.0,13.9256665824
1480.0,13.7577071312
1481.0,13.7452048862
1482.0,13.6552931717
1483.0,13.3876585712
1484.0,13.3005102858
1485.0,13.2345015387
1486.0,13.0834823285
1487.0,13.0061030912
1488.0,12.7178489035
1489.0,12.6331985856
1490.0,12.508442654
1491.0,12.3699528603
1492.0,12.0889428124
1493.0,11.932289086
1494.0,11.9979615034
1495.0,11.9034276662
1496.0,11.8979763944
1497.0,12.0539430821
1498.0,12.0595678369
1499.0,12.1428959566
1500.0,12.0110470853
1501.0,12.1330332384
1502.0,12.107589108
1503.0,12.2497104985
1504.0,12.2028448512
1505.0,12.2617235027
1506.0,12.343815883
1507.0,12.3804891137
1508.0,12.3676156379
1509.0,12.3817726777
1510.0,12.473318837
1511.0,12.4685372356
1512.0,12.6243535994
1513.0,12.630385128
1514.0,12.6247465137
1515.0,12.6817287215
1516.0,12.8748500549
1517.0,12.8410518292
1518.0,12.9568770318
1519.0,12.9866066632
1520.0,13.0754057822
1521.0,13.0168407503
1522.0,13.1712215465
1523.0,13.2490831637
1524.0,13.2269031397
1525.0,13.3055007844
1526.0,13.3630689826
1527.0,13.466883549
1528.0,13.5830291389
1529.0,13.7105705663
1530.0,13.7044938256
1531.0,13.749165966
1532.0,13.9068504475
1533.0,13.9601323135
1534.0,14.055777241
1535.0,14.1075788016
1536.0,14.2000967906
1537.0,14.356117174
1538.0,14.4232274909
1539.0,14.5202159557
1540.0,14.6498959672
1541.0,14.7519600639
1542.0,14.7833699308
1543.0,14.9379094231
1544.0,15.0367414222
1545.0,15.1426845759
1546.0,15.2780734744
1547.0,15.5030625224
1548.0,15.514600419
1549.0,15.7205237527
1550.0,15.8380233877
1551.0,15.9505006884
1552.0,16.1447791321
1553.0,16.3321904213
1554.0,16.3731236863
1555.0,16.2604184144
1556.0,16.1290747213
1557.0,16.088517233
1558.0,16.0480830093
1559.0,16.0455743432
1560.0,15.8512864032
1561.0,15.8839960723
1562.0,15.6653616123
1563.0,15.5897826034
1564.0,15.4769570833
1565.0,15.4408369747
1566.0,15.1780303807
1567.0,15.0288082596
1568.0,14.898003786
1569.0,14.7118288416
1570.0,14.6157620868
1571.0,14.4546661182
1572.0,14.2997554017
1573.0,14.0302698725
1574.0,13.8460465585
1575.0,13.628134858
1576.0,13.3904408952
1577.0,13.3057926748
1578.0,12.9583338729
1579.0,12.75586424
1580.0,12.4087049352
1581.0,12.1471937394
1582.0,11.6664860921
1583.0,11.4490047836
1584.0,10.834851381
1585.0,10.8383995507
1586.0,11.0399107479
1587.0,11.0167106215
1588.0,11.0264539674
1589.0,11.199542708
1590.0,11.0976412227
1591.0,11.1639750979
1592.0,11.2654316157
1593.0,11.2399415048
1594.0,11.4754995227
1595.0,11.4963360626
1596.0,11.5917683939
1597.0,11.6639832726
1598.0,11.586425474
1599.0,11.6474387102
1600.0,11.8693262676
1601.0,11.7853041786
1602.0,11.8892724628
1603.0,11.985342049
1604.0,12.2228274794
1605.0,12.2249578328
1606.0,12.3990110921
1607.0,12.5003145403
1608.0,12.5171680211
1609.0,12.7187244768
1610.0,12.7005204178
1611.0,12.9446257949
1612.0,12.9402191028
1613.0,13.1614990206
1614.0,13.3255809269
1615.0,13.3855803824
1616.0,13.4957158161
1617.0,13.7216668493
1618.0,13.782045098
1619.0,13.9883286443
1620.0,13.9997606555
1621.0,14.0736507729
1622.0,13.8763119164
1623.0,13.7691636415
1624.0,13.7525228372
1625.0,13.6754127465
1626.0,13.6235308053
1627.0,13.5331619389
1628.0,13.4433324006
1629.0,13.2938696127
1630.0,13.1041057723
1631.0,13.0691341944
1632.0,12.9094295957
1633.0,12.6617981721
1634.0,12.5840138799
1635.0,12.506346135
1636.0,12.159664613
1637.0,11.9753086398
1638.0,11.9727342184
1639.0,12.1710095361
1640.0,12.0899638644
1641.0,12.1982495401
1642.0,12.0887316355
1643.0,12.2592050789
1644.0,12.2506187108
1645.0,12.359514825
1646.0,12.2591337875
1647.0,12.4436248352
1648.0,12.4765780608
1649.0,12.3995751897
1650.0,12.374432933
1651.0,12.6004887129
1652.0,12.5672756906
1653.0,12.5621376212
1654.0,12.5398893873
1655.0,12.6673267485
1656.0,12.7117485414
1657.0,12.7927942559
1658.0,12.740408717
1659.0,12.7736209292
1660.0,12.968389913
1661.0,13.0170322451
1662.0,13.1293379328
1663.0,13.0408743408
1664.0,13.1208654852
1665.0,13.1718570345
1666.0,13.1741075585
1667.0,13.4065405673
1668.0,13.3590741072
1669.0,13.4890988423
1670.0,13.629169166
1671.0,13.5285757695
1672.0,13.7032468946
1673.0,13.7349630275
1674.0,13.7501700993
1675.0,13.9177687898
1676.0,14.0214810252
1677.0,14.0235808608
1678.0,14.2468551369
1679.0,14.2220962953
1680.0,14.3073277392
1681.0,14.5046021794
1682.0,14.5826801335
1683.0,14.6352319807
1684.0,14.687532104
1685.0,14.8310055953
1686.0,14.9177233614
1687.0,14.9903987509
1688.0,15.1979842138
1689.0,15.2438610322
1690.0,15.4619592907
1691.0,15.5117050389
1692.0,15.6018626134
1693.0,15.8665045746
1694.0,15.8894687812
1695.0,16.0884854349
1696.0,16.2417899631
1697.0,16.4037096527
1698.0,16.3348844583
1699.0,16.352917389
1700.0,16.3509778609
1701.0,16.143822754
1702.0,16.1087541475
1703.0,16.1067579579
1704.0,15.9707503634
1705.0,15.7656397774
1706.0,15.7239133427
1707.0,15.7324597947
1708.0,15.5998137551
1709.0,15.488550414
1710.0,15.2382946389
1711.0,15.1069477857
1712.0,15.0530836553
1713.0,14.8649027393
1714.0,14.6996516909
1715.0,14.5504840981
1716.0,14.3260032163
1717.0,14.188100674
1718.0,14.0387351655
1719.0,13.8410053114
1720.0,13.6324206864
1721.0,13.3002218681
1722.0,13.0033307823
1723.0,12.7356541056
1724.0,12.5063188578
1725.0,12.1557329632
1726.0,11.9875612842
1727.0,11.474837748
1728.0,11.1682539595
1729.0,11.2155164468
1730.0,11.3117479408
1731.0,11.2986519465
1732.0,11.4159403766
1733.0,11.4234939075
1734.0,11.5098905469
1735.0,11.4728900186
1736.0,11.5052440582
1737.0,11.5847999747
1738.0,11.6350427693
1739.0,11.6664032383
1740.0,11.7634721288
1741.0,11.8794338581
1742.0,12.0441116679
1743.0,12.0464086324
1744.0,12.0936441509
1745.0,12.2360266446
1746.0,12.3111730236
1747.0,12.3625096715
1748.0,12.3793122057
1749.0,12.5109337998
1750.0,12.689643141
1751.0,12.8230474763
1752.0,12.9261704981
1753.0,12.9433446244
1754.0,13.0228514582
1755.0,13.1337344941
1756.0,13.3899029272
1757.0,13.5598691476
1758.0,13.6019073023
1759.0,13.7523552714
1760.0,13.9033801387
1761.0,14.1482675789
1762.0,14.2987377507
1763.0,14.3032678655
1764.0,14.335450949
1765.0,14.4296754874
1766.0,14.2146996616
1767.0,14.2149554735
1768.0,14.1639610689
1769.0,13.9870300851
1770.0,14.0267789732
1771.0,13.8755832572
1772.0,13.7655306616
1773.0,13.6609686319
1774.0,13.5322678038
1775.0,13.4130612155
1776.0,13.1407759956
1777.0,13.0391596141
1778.0,12.8982400391
1779.0,12.7371194313
1780.0,12.6619985789
1781.0,12.3956253048
1782.0,12.4077057485
1783.0,12.5280114946
1784.0,12.5600617545
1785.0,12.4159536823
1786.0,12.5852941394
1787.0,12.5818484846
1788.0,12.5663116856
1789.0,12.534560395
1790.0,12.7226530727
1791.0,12.7785470566
1792.0,12.7382855775
1793.0,12.7427817624
1794.0,12.8001869678
1795.0,12.8447518851
1796.0,12.9009047965
1797.0,12.915391005
1798.0,13.0181197927
1799.0,13.0707129107
1800.0,13.1706729232
1801.0,13.0619143075
1802.0,13.234767104
1803.0,13.2400380669
1804.0,13.3673142615
1805.0,13.2611977809
1806.0,13.4131784153
1807.0,13.5034537666
1808.0,13.576124656
1809.0,13.4960446123
1810.0,13.7199021784
1811.0,13.6967344522
1812.0,13.8570506289
1813.0,13.8671843634
1814.0,14.0088218092
1815.0,13.9785906737
1816.0,14.1075646096
1817.0,14.2048152585
1818.0,14.3146136163
1819.0,14.4133866979
1820.0,14.4363616771
1821.0,14.4694668483
1822.0,14.4898792412
1823.0,14.651559488
1824.0,14.8608909135
1825.0,14.9033276297
1826.0,15.0415843863
1827.0,15.1231997041
1828.0,15.146449317
1829.0,15.3113279705
1830.0,15.345980849
1831.0,15.4314227402
1832.0,15.6922795932
1833.0,15.7821482738
1834.0,15.9960819837
1835.0,16.0605060703
1836.0,16.0838090414
1837.0,16.2572555097
1838.0,16.4074380294
1839.0,16.5218811293
1840.0,16.8367157564
1841.0,16.9580531853
1842.0,16.9289494582
1843.0,16.7653939314
1844.0,16.8479605703
1845.0,16.7286296487
1846.0,16.7074322469
1847.0,16.5524280102
1848.0,16.5456661911
1849.0,16.414811481
1850.0,16.214916788
1851.0,16.1000481523
1852.0,15.9457877937
1853.0,15.9600154714
1854.0,15.704022143
1855.0,15.7266137004
1856.0,15.3884370333
1857.0,15.2934994424
1858.0,15.1349920991
1859.0,14.8885615548
1860.0,14.7901108779
1861.0,14.6022777102
1862.0,14.334939801
1863.0,14.2098068391
1864.0,13.9539030583
1865.0,13.5546181752
1866.0,13.2415706226
1867.0,13.0069795861
1868.0,12.7928853877
1869.0,12.4003826215
1870.0,11.9543936197
1871.0,11.6448690958
1872.0,11.1877026565
1873.0,11.1106068522
1874.0,11.1512968529
1875.0,11.2559590137
1876.0,11.2420117701
1877.0,11.3681792864
1878.0,11.3545995673
1879.0,11.3703575971
1880.0,11.55700277
1881.0,11.6429860028
1882.0,11.6749696442
1883.0,11.7542595784
1884.0,11.7184417709
1885.0,11.7291352708
1886.0,11.8568810473
1887.0,12.0061604042
1888.0,12.10603148
1889.0,12.1008695241
1890.0,12.2509893048
1891.0,12.2475726134
1892.0,12.300229531
1893.0,12.499685737
1894.0,12.5710917104
1895.0,12.7706312663
1896.0,12.7362325315
1897.0,12.8999237166
1898.0,13.0378875239
1899.0,13.1721283906
1900.0,13.2286962549
1901.0,13.3187628726
1902.0,13.5404651595
1903.0,13.6574665498
1904.0,13.8168287721
1905.0,14.0756008482
1906.0,14.2341374052
1907.0,14.2494077288
1908.0,14.2645518903
1909.0,14.1942443968
1910.0,14.240097312
1911.0,14.0082496826
1912.0,14.0210612428
1913.0,13.883557223
1914.0,13.8036862209
1915.0,13.6738739757
1916.0,13.4949731723
1917.0,13.4917375298
1918.0,13.287884773
1919.0,13.1521084971
1920.0,13.0030585628
1921.0,12.9417444639
1922.0,12.6569545967
1923.0,12.4630307633
1924.0,12.3374751739
1925.0,12.0282330678
1926.0,12.1439084426
1927.0,12.1986826516
1928.0,12.129363049
1929.0,12.1216479122
1930.0,12.2313810086
1931.0,12.3293450984
1932.0,12.2108317482
1933.0,12.298545993
1934.0,12.4143611016
1935.0,12.4727607854
1936.0,12.4363006774
1937.0,12.4267251067
1938.0,12.4580688001
1939.0,12.4743767847
1940.0,12.6831944279
1941.0,12.639144875
1942.0,12.7175127398
1943.0,12.7440914214
1944.0,12.8173236828
1945.0,12.9125198346
1946.0,12.9371846633
1947.0,12.8669459873
1948.0,13.0303231584
1949.0,12.9761375502
1950.0,13.0687743156
1951.0,13.1918878757
1952.0,13.1510058635
1953.0,13.242588481
1954.0,13.4247503928
1955.0,13.3370065191
1956.0,13.5110222929
1957.0,13.4758660033
1958.0,13.6601542825
1959.0,13.7497916178
1960.0,13.7052531582
1961.0,13.8518220422
1962.0,13.8384706224
1963.0,13.9264776137
1964.0,14.1273697875
1965.0,14.2591422152
1966.0,14.3132851445
1967.0,14.2922381696
1968.0,14.4390103859
1969.0,14.6253765664
1970.0,14.7039797072
1971.0,14.6995719003
1972.0,14.846631681
1973.0,14.9454005043
1974.0,15.1161227856
1975.0,15.2808214997
1976.0,15.2589876741
1977.0,15.3766076856
1978.0,15.5526343195
1979.0,15.7812165429
1980.0,15.770277811
1981.0,15.9545678365
1982.0,16.1834599433
1983.0,16.1958397546
1984.0,16.3533518166
1985.0,16.6108426104
1986.0,16.483843032
1987.0,16.4955615497
1988.0,16.5100651695
1989.0,16.4497551905
1990.0,16.3056306356
1991.0,16.2632124316
1992.0,16.0541619299
1993.0,15.9526203088
1994.0,16.0187476418
1995.0,15.8744026018
1996.0,15.6393780409
1997.0,15.623400511
1998.0,15.4717604331
1999.0,15.263893432
2000.0,15.1110211211
2001.0,15.0297899938
2002.0,14.9637969142
2003.0,14.7270668733
2004.0,14.4242120236
2005.0,14.3647727261
2006.0,14.0260747557
2007.0,13.9874605496
2008.0,13.5736600208
2009.0,13.3087298197
2010.0,13.2224980139
2011.0,12.9020300836
2012.0,12.5276166103
2013.0,12.1728187226
2014.0,11.9480721396
2015.0,11.591545904
2016.0,11.0824744561
2017.0,11.0994631529
2018.0,11.1589159555
2019.0,11.2137719795
2020.0,11.2365831745
2021.0,11.2807151434
2022.0,11.3867438965
2023.0,11.5236333725
2024.0,11.389518881
2025.0,11.5273131824
2026.0,11.5666154843
2027.0,11.678913582
2028.0,11.6365009981
2029.0,11.7471302718
2030.0,11.7949932964
2031.0,11.9774501608
2032.0,12.0109096488
2033.0,12.0245258991
2034.0,12.1700533617
2035.0,12.3725506853
2036.0,12.3256632901
2037.0,12.3821008045
2038.0,12.6540850764
2039.0,12.6998600959
2040.0,12.8564819225
2041.0,12.9245499768
2042.0,12.9814497115
2043.0,13.0717419973
2044.0,13.2716329264
2045.0,13.4234584905
2046.0,13.5354790607
2047.0,13.617264405
2048.0,13.8178365513
2049.0,13.9226559808
2050.0,14.2121823162
2051.0,14.2943268471
2052.0,14.3649066637
2053.0,14.2994167284
2054.0,14.0929637323
2055.0,14.1434434187
2056.0,14.0245353502
2057.0,13.8387959418
2058.0,13.8264407959
2059.0,13.6779599904
2060.0,13.5601314959
2061.0,13.4642145502
2062.0,13.3344089492
2063.0,13.2801784509
2064.0,13.0054540784
2065.0,12.9978810036
2066.0,12.730153892
2067.0,12.5618052244
2068.0,12.4383198496
2069.0,12.2707427537
2070.0,12.1985540918
2071.0,12.1972585289
2072.0,12.2777054396
2073.0,12.3455364783
2074.0,12.2571672592
2075.0,12.4340782518
2076.0,12.3551565496
2077.0,12.3574207899
2078.0,12.5121322447
2079.0,12.553659573
2080.0,12.5788225333
2081.0,12.6463559769
2082.0,12.5941903579
2083.0,12.7297742845
2084.0,12.6797393118
2085.0,12.750088901
2086.0,12.7734797285
2087.0,12.832064077
2088.0,12.8343350311
2089.0,12.9284710927
2090.0,12.96066068
2091.0,13.1147102434
2092.0,13.1444507645
2093.0,13.1456608233
2094.0,13.2335627956
2095.0,13.2704291879
2096.0,13.2202396299
2097.0,13.3563221955
2098.0,13.4147192767
2099.0,13.4945895238
2100.0,13.4402464664
2101.0,13.6970990631
2102.0,13.6226152806
2103.0,13.8318349853
2104.0,13.773283808
2105.0,13.9074957962
2106.0,14.0293712257
2107.0,13.9563313143
2108.0,14.0727815333
2109.0,14.1473313282
2110.0,14.3723620693
2111.0,14.3319627287
2112.0,14.5318458336
2113.0,14.483079661
2114.0,14.5770562987
2115.0,14.8075831586
2116.0,14.7780490512
2117.0,14.8742651225
2118.0,14.9764325971
2119.0,15.1151475831
2120.0,15.2360197747
2121.0,15.3973686227
2122.0,15.524504522
2123.0,15.6648107558
2124.0,15.8134703835
2125.0,15.8090126731
2126.0,16.0582293506
2127.0,16.0938309854
2128.0,16.2476403115
2129.0,16.5652136492
2130.0,16.4381281004
2131.0,16.4571988025
2132.0,16.3984972199
2133.0,16.2072358407
2134.0,16.0884867546
2135.0,16.0090902298
2136.0,16.0517845561
2137.0,15.8873283947
2138.0,15.8835221396
2139.0,15.7794026198
2140.0,15.6110315844
2141.0,15.4060913114
2142.0,15.3334727
2143.0,15.2461670351
2144.0,15.1112378324
2145.0,14.8415695781
2146.0,14.7053615583
2147.0,14.6185337135
2148.0,14.4154773827
2149.0,14.0909718219
2150.0,13.9339147749
2151.0,13.7318076348
2152.0,13.5126983297
2153.0,13.196922663
2154.0,12.8673079552
2155.0,12.6969229914
2156.0,12.3614584341
2157.0,11.9743968225
2158.0,11.6079277711
2159.0,11.2506310022
2160.0,11.2337984349
2161.0,11.1635007553
2162.0,11.3436114895
2163.0,11.2308036106
2164.0,11.3832774303
2165.0,11.4275072564
2166.0,11.5644349566
2167.0,11.5667147013
2168.0,11.6551454134
2169.0,11.7432349964
2170.0,11.7335066334
2171.0,11.733561591
2172.0,11.8157657781
2173.0,11.8648829838
2174.0,11.9828026437
2175.0,12.1079235303
2176.0,12.0948034165
2177.0,12.1493648716
2178.0,12.2885418371
2179.0,12.3896836487
2180.0,12.5568630626
2181.0,12.6306997112
2182.0,12.7216290488
2183.0,12.7196275701
2184.0,12.9633099778
2185.0,12.9202617704
2186.0,13.2030701955
2187.0,13.2502508905
2188.0,13.4288132871
2189.0,13.4275122438
2190.0,13.7045617302
2191.0,13.857963379
2192.0,13.9839022024
2193.0,14.1707173026
2194.0,14.3543414924
2195.0,14.5148025142
2196.0,14.5285248287
2197.0,14.469195827
2198.0,14.2163415659
2199.0,14.1605014602
2200.0,14.2430269871
2201.0,14.1527309404
2202.0,14.0196295217
2203.0,13.9537298274
2204.0,13.677021706
2205.0,13.66411733
2206.0,13.5352400439
2207.0,13.4737290331
2208.0,13.2076237299
2209.0,13.0246193595
2210.0,12.8811002194
2211.0,12.6695632602
2212.0,12.6222469894
2213.0,12.429920185
2214.0,12.4257301364
2215.0,12.4112993867
2216.0,12.5008753894
2217.0,12.4527875643
2218.0,12.5861419074
2219.0,12.6050669371
2220.0,12.6506434591
2221.0,12.632403808
2222.0,12.5934152746
2223.0,12.6373543857
2224.0,12.7800179792
2225.0,12.7695864276
2226.0,12.7243193327
2227.0,12.8854686447
2228.0,12.9506573388
2229.0,12.9433536214
2230.0,12.9959244839
2231.0,12.9898103741
2232.0,13.0887864179
2233.0,13.1820702537
2234.0,13.169571979
2235.0,13.2258984052
2236.0,13.2340931443
2237.0,13.2419095107
2238.0,13.4658377989
2239.0,13.3711948477
2240.0,13.4598494092
2241.0,13.5840106221
2242.0,13.6820800524
2243.0,13.6205997627
2244.0,13.7684110613
2245.0,13.7370723928
2246.0,13.821603324
2247.0,14.0436063466
2248.0,14.0013842025
2249.0,14.1856788951
2250.0,14.1979701079
2251.0,14.2078290778
2252.0,14.4159909867
2253.0,14.4264503643
2254.0,14.4955748781
2255.0,14.5828538002
2256.0,14.7494923917
2257.0,14.8169995901
2258.0,15.0136194116
2259.0,15.1174964635
2260.0,15.1873206996
2261.0,15.3476472191
2262.0,15.3694173073
2263.0,15.5753949989
2264.0,15.7026134616
2265.0,15.7478536483
2266.0,15.9630391954
2267.0,15.9459810863
2268.0,16.2014898763
2269.0,16.3822421464
2270.0,16.5311383363
2271.0,16.643201924
2272.0,16.7936850661
2273.0,16.83523223
2274.0,16.8545269745
2275.0,16.9162587787
2276.0,16.8477292104
2277.0,16.648372314
2278.0,16.5288416058
2279.0,16.5078941632
2280.0,16.3422233473
2281.0,16.3352385707
2282.0,16.2763503971
2283.0,16.0248566576
2284.0,15.9989560941
2285.0,15.8392183832
2286.0,15.6036230263
2287.0,15.5475277264
2288.0,15.4083303728
2289.0,15.1901374724
2290.0,14.9740729346
2291.0,14.8799974782
2292.0,14.6912427818
2293.0,14.313081489
2294.0,14.0959976562
2295.0,13.8741871207
2296.0,13.6570078523
2297.0,13.2816892481
2298.0,13.1170246781
2299.0,12.6643337625
2300.0,12.4322163921
2301.0,11.9255806951
2302.0,11.4825787116
2303.0,11.1377568039
2304.0,10.7972034097
2305.0,10.8420089668
2306.0,11.0644842608
2307.0,11.0470056578
2308.0,11.1180001833
2309.0,11.2070994113
2310.0,11.0867405248
2311.0,11.2977092598
2312.0,11.3156676024
2313.0,11.3873455273
2314.0,11.4547834049
2315.0,11.4451117978
2316.0,11.5947953723
2317.0,11.4896980543
2318.0,11.7418029491
2319.0,11.6474287886
2320.0,11.8916768271
2321.0,11.8078814126
2322.0,12.0530848426
2323.0,12.0404995227
2324.0,12.1152407384
2325.0,12.1576388479
2326.0,12.4356063637
2327.0,12.4149292669
2328.0,12.5087624953
2329.0,12.5998653939
2330.0,12.7130603362
2331.0,12.859970649
2332.0,13.0646051726
2333.0,13.1827059264
2334.0,13.2114969885
2335.0,13.389453541
2336.0,13.4854993168
2337.0,13.7901720603
2338.0,13.8301873065
2339.0,13.9995730293
2340.0,14.0821640335
2341.0,13.9546195876
2342.0,13.9247129103
2343.0,13.787550766
2344.0,13.7704869493
2345.0,13.6820171923
2346.0,13.531270755
2347.0,13.416741337
2348.0,13.3092923848
2349.0,13.2561694634
2350.0,13.0930150101
2351.0,12.8892674391
2352.0,12.811654546
2353.0,12.6489882968
2354.0,12.406739023
2355.0,12.105597325
2356.0,12.0622401866
2357.0,11.784578977
2358.0,11.683364359
2359.0,11.8038045846
2360.0,11.7568317836
2361.0,11.9251862427
2362.0,11.8355925797
2363.0,11.9774222289
2364.0,11.9051024006
2365.0,12.0093676907
2366.0,12.0821969642
2367.0,12.0726748125
2368.0,12.0666590495
2369.0,12.0480221582
2370.0,12.0999391394
2371.0,12.2271387395
2372.0,12.3385703958
2373.0,12.2641715906
2374.0,12.2665100932
2375.0,12.3108076771
2376.0,12.4900225817
2377.0,12.4984354867
2378.0,12.4802343003
2379.0,12.5379533026
2380.0,12.6756689428
2381.0,12.8267929465
2382.0,12.71222584
2383.0,12.9428909224
2384.0,12.8948149267
2385.0,12.9852177065
2386.0,13.0291224999
2387.0,13.1412646612
2388.0,13.2076399104
2389.0,13.3021313174
2390.0,13.292875089
2391.0,13.3728455293
2392.0,13.5601479313
2393.0,13.5247608822
2394.0,13.7146593455
2395.0,13.7926723574
2396.0,13.7427641175
2397.0,13.9356699995
2398.0,13.938803397
2399.0,14.1356108483
2400.0,14.1277367027
2401.0,14.2554683541
2402.0,14.3289057326
2403.0,14.5734718611
2404.0,14.6614533869
2405.0,14.838963049
2406.0,14.8560664009
2407.0,15.0813629378
2408.0,15.1368158775
2409.0,15.1838465782
2410.0,15.386782371
2411.0,15.4633366038
2412.0,15.668860585
2413.0,15.7684942355
2414.0,16.0237764682
2415.0,16.0447623552
2416.0,16.1893525691
2417.0,16.4832751954
2418.0,16.5070517054
2419.0,16.2812025548
2420.0,16.2511251856
2421.0,16.3072072998
2422.0,16.1688950335
2423.0,16.11335594
2424.0,16.0731383618
2425.0,15.9441505032
2426.0,15.783156147
2427.0,15.7888460259
2428.0,15.648167823
2429.0,15.4624490177
2430.0,15.4712849434
2431.0,15.2139325502
2432.0,15.0121542242
2433.0,14.8802471071
2434.0,14.8997382745
2435.0,14.7292368572
2436.0,14.3936189532
2437.0,14.2234364115
2438.0,14.0676060439
2439.0,13.899616918
2440.0,13.6848220754
2441.0,13.4687259217
2442.0,13.250232971
2443.0,13.0300598597
2444.0,12.683814362
2445.0,12.4618770355
2446.0,12.1307441527
2447.0,11.6558266796
2448.0,11.1667705003
2449.0,11.1406146346
2450.0,11.2183160211
2451.0,11.2319058128
2452.0,11.1966241399
2453.0,11.2317990033
2454.0,11.4463982964
2455.0,11.378086354
2456.0,11.5544044507
2457.0,11.5242015544
2458.0,11.6121395942
2459.0,11.5760568722
2460.0,11.7389270999
2461.0,11.7157704202
2462.0,11.9165712326
2463.0,11.8738017677
2464.0,11.9744080859
2465.0,11.9832217207
2466.0,12.2007186946
2467.0,12.3020944467
2468.0,12.2914572598
2469.0,12.3216012532
2470.0,12.469476688
2471.0,12.576184935
2472.0,12.6095107814
2473.0,12.8967162827
2474.0,12.9965457333
2475.0,13.0647447079
2476.0,13.1856696541
2477.0,13.2156305185
2478.0,13.4002132678
2479.0,13.527054771
2480.0,13.6966238857
2481.0,13.8347046321
2482.0,13.9730573907
2483.0,14.1488636263
2484.0,14.0211428525
2485.0,14.1337087521
2486.0,14.0016434779
2487.0,13.8444573634
2488.0,13.7751017286
2489.0,13.7062431127
2490.0,13.6265504416
2491.0,13.4379195631
2492.0,13.3019923807
2493.0,13.3314763315
2494.0,13.042294899
2495.0,12.961477099
2496.0,12.8886783127
2497.0,12.6064391393
2498.0,12.4195055919
2499.0,12.3803295614
2500.0,11.9973279779
2501.0,11.9567882805
2502.0,11.9321385926
2503.0,11.9268606921
2504.0,11.9910971689
2505.0,11.9006266347
2506.0,11.9304230233
2507.0,12.012962209
2508.0,12.1129999334
2509.0,12.1424860176
2510.0,12.1208067974
2511.0,12.2057003823
2512.0,12.1271977822
2513.0,12.1809015789
2514.0,12.1920565305
2515.0,12.3477769856
2516.0,12.4077765823
2517.0,12.3052551047
2518.0,12.3718740811
2519.0,12.545328903
2520.0,12.5710975368
2521.0,12.5788503389
2522.0,12.5532230609
2523.0,12.7503507164
2524.0,12.7384921939
2525.0,12.7610508935
2526.0,12.7475992559
2527.0,12.8234642387
2528.0,12.9558112034
2529.0,13.0337833706
2530.0,13.1382332717
2531.0,13.0263990214
2532.0,13.0909876482
2533.0,13.2918861523
2534.0,13.228032514
2535.0,13.4002761081
2536.0,13.3629258385
2537.0,13.5272962868
2538.0,13.6407342321
2539.0,13.6637558564
2540.0,13.6476183114
2541.0,13.8499256454
2542.0,13.9903534601
2543.0,13.9210303727
2544.0,14.0432483476
2545.0,14.2349320927
2546.0,14.1675734178
2547.0,14.4202900793
2548.0,14.4714116314
2549.0,14.5001965105
2550.0,14.6594093242
2551.0,14.6860164703
2552.0,14.8784324235
2553.0,15.0620842136
2554.0,15.1126653854
2555.0,15.3000575024
2556.0,15.4529483167
2557.0,15.4324655191
2558.0,15.6862088349
2559.0,15.7964989697
2560.0,15.8742314206
2561.0,16.0637743642
2562.0,15.9359400957
2563.0,16.0305474677
2564.0,15.7953794726
2565.0,15.79033717
2566.0,15.7849099888
2567.0,15.7159018721
2568.0,15.626315755
2569.0,15.4739155024
2570.0,15.2699985896
2571.0,15.1567271344
2572.0,15.0849661609
2573.0,14.9714879439
2574.0,14.6875610759
2575.0,14.6004804489
2576.0,14.3585455568
2577.0,14.2882030723
2578.0,14.1392745579
2579.0,13.8378485498
2580.0,13.6450217512
2581.0,13.5210369345
2582.0,13.2710589787
2583.0,12.8798189044
2584.0,12.6765271799
2585.0,12.239764353
2586.0,12.0486203873
2587.0,11.550275651
2588.0,11.2874790713
2589.0,10.8354348912
2590.0,10.4869054114
2591.0,9.9163344246
2592.0,11.0429143321
2593.0,11.0159844142
2594.0,11.1355479371
2595.0,11.0352080713
2596.0,11.2021312986
2597.0,11.2962772503
2598.0,11.2226482301
2599.0,11.4001153828
2600.0,11.3355592756
2601.0,11.3274117694
2602.0,11.4169194877
2603.0,11.6098700687
2604.0,11.5493899462
2605.0,11.6735962317
2606.0,11.657979521
2607.0,11.8870270705
2608.0,11.904780048
2609.0,11.9518522834
2610.0,12.1567416682
2611.0,12.1768569795
2612.0,12.2459218861
2613.0,12.4207992147
2614.0,12.458691404
2615.0,12.6062863111
2616.0,12.6361167368
2617.0,12.8575657298
2618.0,12.8897576236
2619.0,12.965136465
2620.0,13.1577964982
2621.0,13.3178085609
2622.0,13.4031994709
2623.0,13.5576500957
2624.0,13.6822373835
2625.0,13.7636485924
2626.0,13.9839561386
2627.0,14.1986134647
2628.0,14.2401611566
2629.0,14.1783771605
2630.0,14.0561533593
2631.0,13.8949296085
2632.0,13.835136148
2633.0,13.8439903195
2634.0,13.737090618
2635.0,13.6475551985
2636.0,13.5292908946
2637.0,13.4705658982
2638.0,13.3079122353
2639.0,13.1259633431
2640.0,12.9554056702
2641.0,12.8239967865
2642.0,12.6328070181
2643.0,12.5598611708
2644.0,12.2825159704
2645.0,12.1638706547
2646.0,12.2701814666
2647.0,12.2458843057
2648.0,12.2395627771
2649.0,12.2882046753
2650.0,12.2669811054
2651.0,12.3217292813
2652.0,12.2941480455
2653.0,12.4778384055
2654.0,12.5089095145
2655.0,12.3979935649
2656.0,12.5690308833
2657.0,12.5637002833
2658.0,12.693780781
2659.0,12.7071722397
2660.0,12.6945541938
2661.0,12.7676432295
2662.0,12.7168196456
2663.0,12.7845135057
2664.0,12.8380015898
2665.0,12.9879584001
2666.0,13.0143820408
2667.0,13.0965766771
2668.0,13.0129999418
2669.0,13.0685972248
2670.0,13.2006557509
2671.0,13.2033984953
2672.0,13.3849588334
2673.0,13.4151727856
2674.0,13.4462491605
2675.0,13.5277491582
2676.0,13.5488100387
2677.0,13.6872762796
2678.0,13.7078892148
2679.0,13.7766149698
2680.0,13.8869260436
2681.0,13.9704432348
2682.0,14.1025494964
2683.0,14.0712656145
2684.0,14.1899010845
2685.0,14.2193685111
2686.0,14.3573633128
2687.0,14.4095433887
2688.0,14.6700129663
2689.0,14.6492184085
2690.0,14.7784007886
2691.0,14.8744990752
2692.0,15.0152693625
2693.0,15.0946247917
2694.0,15.1698063935
2695.0,15.3591386053
2696.0,15.5505184884
2697.0,15.5894549194
2698.0,15.6869254268
2699.0,15.8415333928
2700.0,15.9707088301
2701.0,16.1373354335
2702.0,16.2665866815
2703.0,16.5305038631
2704.0,16.6792775466
2705.0,16.6827068037
2706.0,16.7779930841
2707.0,16.7060492457
2708.0,16.5833558148
2709.0,16.4731695618
2710.0,16.533946001
2711.0,16.3080115303
2712.0,16.3033905464
2713.0,16.1964197434
2714.0,16.2021682166
2715.0,15.9695866877
2716.0,15.9335122627
2717.0,15.6929281966
2718.0,15.739240428
2719.0,15.5998554038
2720.0,15.3072084847
2721.0,15.1470259595
2722.0,15.0162337828
2723.0,14.8302230332
2724.0,14.8010462333
2725.0,14.4963275843
2726.0,14.2634844118
2727.0,14.1301654908
2728.0,13.7836946556
2729.0,13.5414662857
2730.0,13.2629204749
2731.0,13.0726493343
2732.0,12.7996200452
2733.0,12.3807829979
2734.0,12.0809319697
2735.0,11.7953655597
2736.0,11.0380269499
2737.0,11.0636973562
2738.0,11.0996066106
2739.0,11.1400256654
2740.0,11.2081063799
2741.0,11.4003705178
2742.0,11.2578320379
2743.0,11.4286237421
2744.0,11.5381823961
2745.0,11.614385945
2746.0,11.5500065958
2747.0,11.721638016
2748.0,11.706528224
2749.0,11.7415382654
2750.0,11.8166879092
2751.0,11.8803680002
2752.0,11.9969290842
2753.0,12.0188480131
2754.0,12.1999462709
2755.0,12.3057108261
2756.0,12.3891652475
2757.0,12.3392278516
2758.0,12.5723427109
2759.0,12.6357299775
2760.0,12.6780304655
2761.0,12.8194211603
2762.0,13.058858633
2763.0,13.0656460505
2764.0,13.2261589586
2765.0,13.3577281608
2766.0,13.4182942245
2767.0,13.6543232383
2768.0,13.6740283973
2769.0,13.822766757
2770.0,14.133152165
2771.0,14.3324791162
2772.0,14.1763553753
2773.0,14.0733943924
2774.0,14.1627714433
2775.0,13.9628305938
2776.0,13.8579898959
2777.0,13.8784925028
2778.0,13.7337536605
2779.0,13.5490208074
2780.0,13.4516753676
2781.0,13.3850875883
2782.0,13.3044500684
2783.0,13.192751807
2784.0,12.9198578407
2785.0,12.8615855683
2786.0,12.6226011571
2787.0,12.6019582491
2788.0,12.401209181
2789.0,12.1270106181
2790.0,12.0849457279
2791.0,12.1679877253
2792.0,12.1100816349
2793.0,12.2508562237
2794.0,12.2451729288
2795.0,12.3173973313
2796.0,12.2391799176
2797.0,12.3151296108
2798.0,12.3392959653
2799.0,12.3607645984
2800.0,12.532385591
2801.0,12.4772423133
2802.0,12.4665173685
2803.0,12.4680835561
2804.0,12.6239690561
2805.0,12.585355192
2806.0,12.6646124022
2807.0,12.7541537944
2808.0,12.7451252127
2809.0,12.7411751111
2810.0,12.9422292283
2811.0,12.8934506945
2812.0,12.9533588612
2813.0,13.0146318994
2814.0,13.1030600878
2815.0,13.0783430415
2816.0,13.2224777776
2817.0,13.3025096904
2818.0,13.2430822401
2819.0,13.3153197314
2820.0,13.3891648291
2821.0,13.4069543759
2822.0,13.4703005224
2823.0,13.5938644374
2824.0,13.7927962265
2825.0,13.8046991843
2826.0,13.8676690043
2827.0,13.83999684
2828.0,14.0222367124
2829.0,14.0192966671
2830.0,14.1511602692
2831.0,14.2172871301
2832.0,14.2944927111
2833.0,14.5321903666
2834.0,14.6406194552
2835.0,14.7243205845
2836.0,14.6863508835
2837.0,14.9287739045
2838.0,14.9322323336
2839.0,15.1446805439
2840.0,15.1561708699
2841.0,15.2567460363
2842.0,15.3756183912
2843.0,15.438992529
2844.0,15.7579175594
2845.0,15.720866311
2846.0,15.8233016929
2847.0,16.1357585927
2848.0,16.1449294836
2849.0,16.3190408488
2850.0,16.3709109317
2851.0,16.3035006805
2852.0,16.2350897507
2853.0,16.1584176178
2854.0,16.1081653864
2855.0,15.9849748937
2856.0,15.8626299229
2857.0,15.7521787755
2858.0,15.7078566278
2859.0,15.4854783625
2860.0,15.538684059
2861.0,15.3548337593
2862.0,15.1774079689
2863.0,15.0551780245
2864.0,14.8395594308
2865.0,14.7944840731
2866.0,14.662628306
2867.0,14.4408371991
2868.0,14.3213922745
2869.0,14.1261641131
2870.0,13.8842110752
2871.0,13.531971782
2872.0,13.4253028627
2873.0,13.1414852033
2874.0,12.8548884769
2875.0,12.5937404426
2876.0,12.2508895944
2877.0,11.8664664169
2878.0,11.6227368521
2879.0,11.1335682875
2880.0,10.903774137
2881.0,10.7973736327
2882.0,10.9588622004
2883.0,11.0065293033
2884.0,10.9728435427
2885.0,11.086125109
2886.0,11.1698433355
2887.0,11.1428139923
2888.0,11.2378381191
2889.0,11.3627333772
2890.0,11.3782474408
2891.0,11.3735117634
2892.0,11.498244663
2893.0,11.6072208131
2894.0,11.5643561672
2895.0,11.7623858707
2896.0,11.7671520622
2897.0,11.7761291766
2898.0,11.8969601275
2899.0,12.1079820836
2900.0,12.2319559694
2901.0,12.2970620711
2902.0,12.3624709255
2903.0,12.3399215588
2904.0,12.6024486795
2905.0,12.7544158279
2906.0,12.7445059
2907.0,12.8724170879
2908.0,12.9366426709
2909.0,13.1530528849
2910.0,13.227783825
2911.0,13.5320048925
2912.0,13.5194130604
2913.0,13.7918144099
2914.0,13.9683323644
2915.0,14.1999631966
2916.0,14.2053941345
2917.0,13.9635996621
2918.0,13.9520449018
2919.0,13.9540310656
2920.0,13.8486003607
2921.0,13.6904261854
2922.0,13.6710936773
2923.0,13.5035468738
2924.0,13.4555211665
2925.0,13.2045529689
2926.0,13.0471832806
2927.0,13.0473720712
2928.0,12.8612578568
2929.0,12.7190866467
2930.0,12.58420565
2931.0,12.281907752
2932.0,12.1640193595
2933.0,11.9408756507
2934.0,11.882171972
2935.0,12.0254264807
2936.0,12.0162638104
2937.0,12.0251086834
2938.0,12.1680515121
2939.0,12.114627984
2940.0,12.1700153651
2941.0,12.1637891267
2942.0,12.2508765229
2943.0,12.2211400882
2944.0,12.2327778643
2945.0,12.2627338918
2946.0,12.4115713939
2947.0,12.4721070924
2948.0,12.4220476269
2949.0,12.527352797
2950.0,12.5643740246
2951.0,12.6269002909
2952.0,12.5717090742
2953.0,12.6307180067
2954.0,12.7737991144
2955.0,12.8384561136
2956.0,12.8075665041
2957.0,12.7832900087
2958.0,12.9195074529
2959.0,13.007349165
2960.0,12.9559555978
2961.0,13.087479393
2962.0,13.1746823002
2963.0,13.2233695626
2964.0,13.2939385804
2965.0,13.3677608224
2966.0,13.4486118216
2967.0,13.4133078092
2968.0,13.5170934629
2969.0,13.5637442516
2970.0,13.7460766717
2971.0,13.8787360297
2972.0,13.8567510313
2973.0,13.9489762091
2974.0,14.0525641249
2975.0,14.20758231
2976.0,14.2284000433
2977.0,14.2538429075
2978.0,14.3248290491
2979.0,14.5338937781
2980.0,14.7061629414
2981.0,14.8053914083
2982.0,14.8288701107
2983.0,14.959566812
2984.0,15.0322486693
2985.0,15.179940727
2986.0,15.3190388767
2987.0,15.3288362104
2988.0,15.4734879962
2989.0,15.6167560442
2990.0,15.7344774923
2991.0,15.9148688403
2992.0,16.0958771145
2993.0,16.3049321871
2994.0,16.1525498435
2995.0,16.1387038716
2996.0,16.096383823
2997.0,16.0287422203
2998.0,15.9496166951
2999.0,15.9856120538
3000.0,15.8012888444
3001.0,15.7867347015
3002.0,15.683243234
3003.0,15.5742010675
3004.0,15.4666123823
3005.0,15.2174700747
3006.0,15.1874178003
3007.0,15.1112376696
3008.0,14.8717356777
3009.0,14.8307474615
3010.0,14.6271424719
3011.0,14.3511878432
3012.0,14.3632333307
3013.0,14.1149588605
3014.0,13.8305160132
3015.0,13.7576146145
3016.0,13.4046746985
3017.0,13.170077617
3018.0,12.9761589353
3019.0,12.7730457274
3020.0,12.4560383319
3021.0,12.1912495989
3022.0,11.7017041412
3023.0,11.3905368704
3024.0,11.0246759941
3025.0,11.1475888322
3026.0,11.1837073453
3027.0,11.1416570942
3028.0,11.2005337861
3029.0,11.2571266615
3030.0,11.3826142036
3031.0,11.326525057
3032.0,11.4386112408
3033.0,11.4590478435
3034.0,11.5206143951
3035.0,11.5903978434
3036.0,11.67537592
3037.0,11.7127055418
3038.0,11.7918216783
3039.0,11.8963700872
3040.0,11.8655457882
3041.0,12.0866062912
3042.0,12.1506739065
3043.0,12.1601110828
3044.0,12.1988524725
3045.0,12.3602762688
3046.0,12.3600223373
3047.0,12.6142796404
3048.0,12.5733902395
3049.0,12.6604567083
3050.0,12.8430842219
3051.0,13.0039485674
3052.0,12.9802570167
3053.0,13.1939552584
3054.0,13.4068160177
3055.0,13.5221954377
3056.0,13.584904019
3057.0,13.760132658
3058.0,13.8347193439
3059.0,13.9661637828
3060.0,14.0892785231
3061.0,13.9592044385
3062.0,13.8540572272
3063.0,13.7411687179
3064.0,13.6473440646
3065.0,13.6187544289
3066.0,13.5679001087
3067.0,13.473493098
3068.0,13.291133019
3069.0,13.0857252991
3070.0,13.1436321844
3071.0,12.9861647132
3072.0,12.6881954508
3073.0,12.6768056335
3074.0,12.3779687733
3075.0,12.2324026082
3076.0,12.0092120571
3077.0,11.8189096587
3078.0,11.9960277364
3079.0,11.856961725
3080.0,11.962181052
3081.0,12.0857792464
3082.0,12.0006315128
3083.0,11.9709421022
3084.0,11.9955966353
3085.0,12.1575932301
3086.0,12.2306181585
3087.0,12.2637258743
3088.0,12.2093029239
3089.0,12.3190686024
3090.0,12.3547017712
3091.0,12.3039103334
3092.0,12.3797685545
3093.0,12.4626531703
3094.0,12.5337260423
3095.0,12.5469249039
3096.0,12.5517047158
3097.0,12.5788518523
3098.0,12.5800772082
3099.0,12.7396096731
3100.0,12.7405836496
3101.0,12.7177711715
3102.0,12.9501002715
3103.0,12.994291301
3104.0,12.9877462417
3105.0,13.0396108588
3106.0,13.0712954453
3107.0,13.099157958
3108.0,13.3142360069
3109.0,13.3847700874
3110.0,13.3835300971
3111.0,13.4113610402
3112.0,13.5536202863
3113.0,13.5497417155
3114.0,13.7035082936
3115.0,13.8094945508
3116.0,13.8574427013
3117.0,13.9180364255
3118.0,13.9204806353
3119.0,14.0671818226
3120.0,14.2193666514
3121.0,14.1673851947
3122.0,14.4056734769
3123.0,14.3488027033
3124.0,14.5077688005
3125.0,14.6527899126
3126.0,14.7396433212
3127.0,14.9462587074
3128.0,15.0639526721
3129.0,15.0892195126
3130.0,15.1250852643
3131.0,15.3058195073
3132.0,15.4705624949
3133.0,15.4951186718
3134.0,15.7151164755
3135.0,15.8189463668
3136.0,16.0428861913
3137.0,16.2111976535
3138.0,16.1821303115
3139.0,16.0495062474
3140.0,16.0830516467
3141.0,16.0157393508
3142.0,15.9430460887
3143.0,15.721224979
3144.0,15.6268043237
3145.0,15.6134724856
3146.0,15.5404433268
3147.0,15.4099572926
3148.0,15.2295260295
3149.0,15.0949411252
3150.0,14.9603851026
3151.0,14.8439003832
3152.0,14.8083894193
3153.0,14.7377834445
3154.0,14.5234566556
3155.0,14.3078548932
3156.0,14.079021663
3157.0,13.8752728755
3158.0,13.839357251
3159.0,13.5603760688
3160.0,13.2748843207
3161.0,13.0948907162
3162.0,12.9405281317
3163.0,12.62882624
3164.0,12.2652633273
3165.0,11.9226859852
3166.0,11.6992207606
3167.0,11.3494096033
3168.0,10.9476138758
3169.0,10.9096961668
3170.0,10.9627562994
3171.0,11.1453020412
3172.0,11.132225152
3173.0,11.1910205447
3174.0,11.2413207716
3175.0,11.3685129858
3176.0,11.2762983211
3177.0,11.3622287646
3178.0,11.3804509032
3179.0,11.5958925417
3180.0,11.5196509599
3181.0,11.7226305309
3182.0,11.7091555689
3183.0,11.755719226
3184.0,11.9455010915
3185.0,12.0746308142
3186.0,12.1287382755
3187.0,12.1226439644
3188.0,12.2615345636
3189.0,12.4125607258
3190.0,12.3546393591
3191.0,12.5302522531
3192.0,12.7546166469
3193.0,12.8731765544
3194.0,12.802382401
3195.0,13.1162128139
3196.0,13.1855182292
3197.0,13.2885783914
3198.0,13.4827471984
3199.0,13.5133926695
3200.0,13.6991909207
3201.0,13.7881660016
3202.0,14.1198020531
3203.0,14.2875397889
3204.0,14.1556885729
3205.0,14.1772666352
3206.0,14.0118731918
3207.0,14.0308798938
3208.0,13.9270754098
3209.0,13.8115225957
3210.0,13.8043031699
3211.0,13.7151766607
3212.0,13.5051948673
3213.0,13.5338154034
3214.0,13.4391911089
3215.0,13.2475634004
3216.0,13.098549131
3217.0,12.8786931304
3218.0,12.8611972076
3219.0,12.677832641
3220.0,12.5852800481
3221.0,12.3848111017
3222.0,12.31764689
3223.0,12.3234959433
3224.0,12.3622977415
3225.0,12.4605495925
3226.0,12.5213359619
3227.0,12.4885881439
3228.0,12.4494878615
3229.0,12.511031042
3230.0,12.5706718091
3231.0,12.5773598646
3232.0,12.5924648604
3233.0,12.732142602
3234.0,12.790971992
3235.0,12.789632865
3236.0,12.8497954565
3237.0,12.8575235023
3238.0,12.9365350383
3239.0,12.9312540424
3240.0,13.0339438941
3241.0,13.1121142014
3242.0,13.0769105897
3243.0,13.0998497445
3244.0,13.2922149525
3245.0,13.1596048824
3246.0,13.2823049155
3247.0,13.3645283441
3248.0,13.363288867
3249.0,13.5190771171
3250.0,13.488102458
3251.0,13.5222106318
3252.0,13.5971960553
3253.0,13.8009364355
3254.0,13.9010030243
3255.0,13.9906478451
3256.0,13.9399063268
3257.0,14.1339329037
3258.0,14.1635456886
3259.0,14.1218236756
3260.0,14.3940588855
3261.0,14.418134523
3262.0,14.4570468678
3263.0,14.5224596957
3264.0,14.6076294243
3265.0,14.7748707344
3266.0,14.76802272
3267.0,14.9056713377
3268.0,15.0654399695
3269.0,15.1268167358
3270.0,15.353397169
3271.0,15.3507003926
3272.0,15.5526533196
3273.0,15.7326382734
3274.0,15.8598292923
3275.0,15.8600713548
3276.0,16.0214289604
3277.0,16.2407017933
3278.0,16.3747794795
3279.0,16.3898848122
3280.0,16.7182290841
3281.0,16.819521674
3282.0,16.8273397426
3283.0,16.6615733421
3284.0,16.7085946965
3285.0,16.5544970355
3286.0,16.5252124005
3287.0,16.4195617988
3288.0,16.3385125314
3289.0,16.2316437836
3290.0,16.052920428
3291.0,16.0373497027
3292.0,16.0124761388
3293.0,15.7413834269
3294.0,15.7227944972
3295.0,15.5826559103
3296.0,15.3355843106
3297.0,15.2540596318
3298.0,15.0221736161
3299.0,14.8556782916
3300.0,14.6881159081
3301.0,14.5631477359
3302.0,14.3808242054
3303.0,14.0379102876
3304.0,13.8153518199
3305.0,13.7434508969
3306.0,13.3441926954
3307.0,13.1588047733
3308.0,12.8392994938
3309.0,12.5392856608
3310.0,12.2069500493
3311.0,11.7480792414
3312.0,10.9414950662
3313.0,11.0556423041
3314.0,11.0463103799
3315.0,11.2540382513
3316.0,11.2743756577
3317.0,11.1823001839
3318.0,11.2562458678
3319.0,11.3636683425
3320.0,11.4540796763
3321.0,11.4148679761
3322.0,11.55374942
3323.0,11.6364873031
3324.0,11.6231356119
3325.0,11.7990261672
3326.0,11.9202830475
3327.0,11.8489680979
3328.0,11.9369148952
3329.0,12.1399133095
3330.0,12.0568867166
3331.0,12.2548028389
3332.0,12.2668723991
3333.0,12.4676483573
3334.0,12.4640624439
3335.0,12.6431808651
3336.0,12.8338974063
3337.0,12.8435652218
3338.0,12.8843408772
3339.0,13.1479240093
3340.0,13.2770433538
3341.0,13.3695269258
3342.0,13.5609119032
3343.0,13.7482428788
3344.0,13.8718978449
3345.0,13.9983871606
3346.0,14.1737700712
3347.0,14.2296120438
3348.0,14.1999099537
3349.0,14.166342927
3350.0,14.1149291511
3351.0,14.0253523687
3352.0,14.0480581167
3353.0,13.9848232589
3354.0,13.8561125945
3355.0,13.657250049
3356.0,13.6337308412
3357.0,13.4774980735
3358.0,13.3318422582
3359.0,13.146335888
3360.0,12.9687751386
3361.0,12.9098768882
3362.0,12.7509409278
3363.0,12.576588295
3364.0,12.3196609782
3365.0,12.1846381159
3366.0,12.0272423897
3367.0,12.1002916789
3368.0,12.2613457599
3369.0,12.1430619582
3370.0,12.2795761816
3371.0,12.2549973777
3372.0,12.286747261
3373.0,12.3781501611
3374.0,12.3811904448
3375.0,12.4154506173
3376.0,12.4602995859
3377.0,12.3805376418
3378.0,12.5349196847
3379.0,12.5414146265
3380.0,12.6022325925
3381.0,12.5345885385
3382.0,12.613814583
3383.0,12.6544231414
3384.0,12.7920680311
3385.0,12.8160445006
3386.0,12.9457888267
3387.0,12.8247907119
3388.0,13.0522449426
3389.0,12.9200465694
3390.0,13.1328163178
3391.0,13.1549155565
3392.0,13.2084062472
3393.0,13.3204160256
3394.0,13.2660676166
3395.0,13.4441267174
3396.0,13.4669883289
3397.0,13.3980409298
3398.0,13.606182297
3399.0,13.5585184534
3400.0,13.7384116675
3401.0,13.8189167163
3402.0,13.916631954
3403.0,13.8417962217
3404.0,14.0853054498
3405.0,14.0005006187
3406.0,14.2782007798
3407.0,14.288800916
3408.0,14.3501418943
3409.0,14.4809837646
3410.0,14.4684814175
3411.0,14.7223864437
3412.0,14.7824941833
3413.0,14.8195249551
3414.0,15.0080051156
3415.0,15.0201457683
3416.0,15.2093422323
3417.0,15.3516578938
3418.0,15.4568810291
3419.0,15.6304677542
3420.0,15.6515072432
3421.0,15.8928733623
3422.0,15.9508127903
3423.0,16.0530521743
3424.0,16.2595881742
3425.0,16.3885672647
3426.0,16.3388212036
3427.0,16.2233938263
3428.0,16.1336439024
3429.0,16.2377256098
3430.0,16.1080108216
3431.0,15.9166360796
3432.0,15.862083782
3433.0,15.8111189423
3434.0,15.7156853334
3435.0,15.5175037913
3436.0,15.5202748732
3437.0,15.3289189573
3438.0,15.3064018634
3439.0,15.1685501017
3440.0,14.9132109882
3441.0,14.800815926
3442.0,14.6735040517
3443.0,14.4065173443
3444.0,14.2187798478
3445.0,14.0742424852
3446.0,13.843319047
3447.0,13.582464889
3448.0,13.2621985118
3449.0,13.1490032588
3450.0,12.8147536413
3451.0,12.5677349684
3452.0,12.1022735627
3453.0,11.891248913
3454.0,11.3950664338
3455.0,11.1292394724
3456.0,10.8432292306
3457.0,10.9400719358
3458.0,11.1119566165
3459.0,11.0828511984
3460.0,11.0364767187
3461.0,11.1203506055
3462.0,11.2500574649
3463.0,11.3115592581
3464.0,11.280236528
3465.0,11.4754092301
3466.0,11.3723907256
3467.0,11.4843061741
3468.0,11.6257412178
3469.0,11.5398359297
3470.0,11.6899240221
3471.0,11.8477451601
3472.0,11.897651149
3473.0,11.9940392676
3474.0,11.9845180483
3475.0,12.1822420992
3476.0,12.2203476901
3477.0,12.2910717746
3478.0,12.2981230702
3479.0,12.5233150972
3480.0,12.5058856254
3481.0,12.6886820879
3482.0,12.8800640723
3483.0,12.9357750547
3484.0,13.0007203
3485.0,13.1675307357
3486.0,13.3104015322
3487.0,13.540589537
3488.0,13.5357411154
3489.0,13.6917905551
3490.0,13.8133008774
3491.0,13.9709984419
3492.0,13.975220449
3493.0,14.0780395938
3494.0,13.9450658957
3495.0,13.8834172243
3496.0,13.7041383772
3497.0,13.7318165575
3498.0,13.5242095662
3499.0,13.3453279928
3500.0,13.2763652894
3501.0,13.2431443378
3502.0,13.1132994825
3503.0,12.9530507222
3504.0,12.6652985307
3505.0,12.4608507969
3506.0,12.3768421476
3507.0,12.1610668094
3508.0,11.8668409237
3509.0,11.694256841
3510.0,11.7893398809
3511.0,11.7403543389
3512.0,11.7806483638
3513.0,11.8631176271
3514.0,11.8008930336
3515.0,11.8926530427
3516.0,11.9037835162
3517.0,11.9797622214
3518.0,11.9752708332
3519.0,11.967432865
3520.0,12.0423320251
3521.0,12.0671243241
3522.0,12.1253429833
3523.0,12.1976170997
3524.0,12.1971026155
3525.0,12.1995042436
3526.0,12.2817525469
3527.0,12.3590162088
3528.0,12.4624307586
3529.0,12.4770590947
3530.0,12.490082652
3531.0,12.5899770914
3532.0,12.6961367265
3533.0,12.7397359242
3534.0,12.6155383461
3535.0,12.8045426499
3536.0,12.9039510985
3537.0,12.9505520633
3538.0,12.888696726
3539.0,12.9330929814
3540.0,13.1000844672
3541.0,13.191645291
3542.0,13.2174295075
3543.0,13.3847950245
3544.0,13.4364897544
3545.0,13.4241935895
3546.0,13.423643734
3547.0,13.545587436
3548.0,13.6051925593
3549.0,13.8722540833
3550.0,13.8201743656
3551.0,14.0176485476
3552.0,14.0900749637
3553.0,14.2217605058
3554.0,14.2197464104
3555.0,14.2766069185
3556.0,14.3949431123
3557.0,14.5889864731
3558.0,14.6288677414
3559.0,14.8111687345
3560.0,14.8932723709
3561.0,14.9662395847
3562.0,15.1812811342
3563.0,15.3434450204
3564.0,15.4493009171
3565.0,15.4662201363
3566.0,15.6065071601
3567.0,15.9190630644
3568.0,16.0650164335
3569.0,16.0909554202
3570.0,16.0751494569
3571.0,15.9851241917
3572.0,16.0471228804
3573.0,15.8747771665
3574.0,15.7861452881
3575.0,15.8186148749
3576.0,15.6918338757
3577.0,15.5188329077
3578.0,15.4987628097
3579.0,15.3032000818
3580.0,15.2863981676
3581.0,15.0771656492
3582.0,15.0240937521
3583.0,14.7698117238
3584.0,14.7426479554
3585.0,14.6043877585
3586.0,14.3871207392
3587.0,14.0893891557
3588.0,14.0383189168
3589.0,13.7414727827
3590.0,13.4894374597
3591.0,13.4062326226
3592.0,13.1623051582
3593.0,12.8042272109
3594.0,12.5909893105
3595.0,12.139702842
3596.0,11.941209276
3597.0,11.5649091867
3598.0,11.2333428501
3599.0,10.8312417721
3600.0,10.9761291554
3601.0,10.95933119
3602.0,11.1092997508
3603.0,11.0326102201
3604.0,11.157779936
3605.0,11.1473005221
3606.0,11.3456695078
3607.0,11.3298715435
3608.0,11.3109865015
3609.0,11.4552980562
3610.0,11.3786245247
3611.0,11.5323481922
3612.0,11.6429287725
3613.0,11.7469824237
3614.0,11.6587186642
3615.0,11.8558411552
3616.0,11.7632713474
3617.0,11.8995972453
3618.0,11.9328639369
3619.0,12.0798844368
3620.0,12.1507883767
3621.0,12.3496457618
3622.0,12.4049253941
3623.0,12.5423960366
3624.0,12.5453364724
3625.0,12.5541292551
3626.0,12.8300432667
3627.0,12.8960576827
3628.0,12.9637176975
3629.0,13.154215601
3630.0,13.2018417416
3631.0,13.3051549623
3632.0,13.5272613291
3633.0,13.6158319097
3634.0,13.693284975
3635.0,13.9201191012
3636.0,13.9332884017
3637.0,13.9392457174
3638.0,13.7696671902
3639.0,13.7634922588
3640.0,13.5832961861
3641.0,13.4881690444
3642.0,13.4425959134
3643.0,13.317615328
3644.0,13.1896229442
3645.0,12.9539225828
3646.0,12.9063090487
3647.0,12.7360200561
3648.0,12.5496343834
3649.0,12.3290558224
3650.0,12.2394694688
3651.0,11.9765001714
3652.0,11.7609094459
3653.0,11.6248193287
3654.0,11.5894799794
3655.0,11.6346648387
3656.0,11.711713179
3657.0,11.5847356755
3658.0,11.5807022914
3659.0,11.7381957631
3660.0,11.8017904989
3661.0,11.734240217
3662.0,11.7527581347
3663.0,11.7820640123
3664.0,11.9101160641
3665.0,11.966629244
3666.0,11.9801329434
3667.0,12.0334614735
3668.0,12.1150864299
3669.0,12.1341687828
3670.0,12.0839265936
3671.0,12.1022018233
3672.0,12.2966284431
3673.0,12.3269502352
3674.0,12.3042232009
3675.0,12.3172489428
3676.0,12.5185699199
3677.0,12.4866721923
3678.0,12.6169413464
3679.0,12.5641013723
3680.0,12.7400247497
3681.0,12.6883573736
3682.0,12.7271665059
3683.0,12.9639130288
3684.0,13.0106882448
3685.0,12.9561360742
3686.0,13.0217680104
3687.0,13.1315304018
3688.0,13.1691017287
3689.0,13.2917527155
3690.0,13.4788224456
3691.0,13.4913128083
3692.0,13.6219216033
3693.0,13.7534968343
3694.0,13.7505699137
3695.0,13.8014727559
3696.0,13.8834037848
3697.0,13.9786581784
3698.0,14.1965035219
3699.0,14.3417497409
3700.0,14.3570328663
3701.0,14.4104059955
3702.0,14.5761067193
3703.0,14.6853093675
3704.0,14.776895005
3705.0,14.9684184507
3706.0,15.1727781618
3707.0,15.2999435804
3708.0,15.297947901
3709.0,15.5612617137
3710.0,15.6504137943
3711.0,15.8342893459
3712.0,15.9944761308
3713.0,16.2156461949
3714.0,16.0624844021
3715.0,16.0954338127
3716.0,16.0165846163
3717.0,15.9666890326
3718.0,15.8002474758
3719.0,15.7135345553
3720.0,15.5893138742
3721.0,15.63883332
3722.0,15.5625002002
3723.0,15.3427849908
3724.0,15.2217158306
3725.0,15.1119655682
3726.0,14.9490116342
3727.0,14.9039350405
3728.0,14.7360157585
3729.0,14.6966628027
3730.0,14.5140302411
3731.0,14.3575437277
3732.0,14.0365921567
3733.0,13.9124554541
3734.0,13.6242950033
3735.0,13.4705727381
3736.0,13.3064649153
3737.0,12.9155451789
3738.0,12.794502565
3739.0,12.546658897
3740.0,12.175376006
3741.0,11.9163257884
3742.0,11.5588278587
3743.0,11.1074239519
3744.0,11.0522168682
3745.0,11.121625059
3746.0,11.1708899687
3747.0,11.1524587398
3748.0,11.2051899205
3749.0,11.3115757595
3750.0,11.3117744683
3751.0,11.4743203343
3752.0,11.4685171063
3753.0,11.5793504306
3754.0,11.6320232732
3755.0,11.6392920044
3756.0,11.6152097867
3757.0,11.8659942226
3758.0,11.7524644925
3759.0,11.8832026657
3760.0,11.9610066247
3761.0,12.1255821327
3762.0,12.0992643053
3763.0,12.3116507545
3764.0,12.3797112569
3765.0,12.3477487061
3766.0,12.5033127889
3767.0,12.5873358031
3768.0,12.6609443749
3769.0,12.8656030857
3770.0,12.8655275089
3771.0,13.0352681703
3772.0,13.2444374058
3773.0,13.288402989
3774.0,13.4724211973
3775.0,13.5424147121
3776.0,13.7191365382
3777.0,13.8812525273
3778.0,13.9692685271
3779.0,14.2797586261
3780.0,14.1501452468
3781.0,14.1337188807
3782.0,14.022529374
3783.0,13.9843143376
3784.0,13.9756169104
3785.0,13.846118125
3786.0,13.665482434
3787.0,13.6463256957
3788.0,13.5259197785
3789.0,13.3632020907
3790.0,13.2690126584
3791.0,13.2691510201
3792.0,13.0713573937
3793.0,12.8571374991
3794.0,12.7208307826
3795.0,12.4827392276
3796.0,12.3967255984
3797.0,12.1814010434
3798.0,12.2160692436
3799.0,12.2358294118
3800.0,12.2158434838
3801.0,12.3186403765
3802.0,12.3334391169
3803.0,12.3048795346
3804.0,12.416884524
3805.0,12.3690070356
3806.0,12.4633419947
3807.0,12.5714683447
3808.0,12.4716916796
3809.0,12.4799432164
3810.0,12.7038434111
3811.0,12.6544107679
3812.0,12.6760889856
3813.0,12.709973206
3814.0,12.8806527065
3815.0,12.8203998083
3816.0,12.9280823858
3817.0,13.0159385811
3818.0,13.0373349773
3819.0,13.0868451666
3820.0,13.0716188302
3821.0,13.1519731904
3822.0,13.2813401228
3823.0,13.1579046037
3824.0,13.3989948358
3825.0,13.4629476122
3826.0,13.3998972647
3827.0,13.5062322423
3828.0,13.6075847282
3829.0,13.7105489892
3830.0,13.6968559995
3831.0,13.6934198719
3832.0,13.9062515617
3833.0,13.9012936199
3834.0,14.0614954531
3835.0,14.1175605459
3836.0,14.1533361124
3837.0,14.2851281558
3838.0,14.2996625981
3839.0,14.3891375062
3840.0,14.4468861371
3841.0,14.5726113415
3842.0,14.7425782343
3843.0,14.8040385945
3844.0,14.9774968615
3845.0,15.0927180322
3846.0,15.1505559404
3847.0,15.3102607863
3848.0,15.4619586438
3849.0,15.4978637665
3850.0,15.726256478
3851.0,15.7537878519
3852.0,15.9932596759
3853.0,16.09401784
3854.0,16.256125721
3855.0,16.3043955768
3856.0,16.4514483063
3857.0,16.5855794294
3858.0,16.6280415804
3859.0,16.5039649543
3860.0,16.5431111844
3861.0,16.388176355
3862.0,16.2497278069
3863.0,16.243399996
3864.0,16.0976389862
3865.0,16.082501943
3866.0,15.9633764707
3867.0,15.8047547008
3868.0,15.7108021311
3869.0,15.4718599847
3870.0,15.3916529058
3871.0,15.2592006467
3872.0,15.1219820361
3873.0,14.9390684385
3874.0,14.6983609861
3875.0,14.4874984619
3876.0,14.248104222
3877.0,14.0558908453
3878.0,13.8357942535
3879.0,13.6320091147
3880.0,13.3413753008
3881.0,13.0039827026
3882.0,12.6541758403
3883.0,12.3183158154
3884.0,12.0502727017
3885.0,11.5109310294
3886.0,11.2185801951
3887.0,10.8172265955
3888.0,10.9505181699
3889.0,10.9612576051
3890.0,11.0913197057
3891.0,11.1423095081
3892.0,11.087927092
3893.0,11.2010692572
3894.0,11.3289559178
3895.0,11.381654103
3896.0,11.2980237893
3897.0,11.3962510391
3898.0,11.4377968079
3899.0,11.5910605241
3900.0,11.6982348927
3901.0,11.7491200249
3902.0,11.8218999682
3903.0,11.856000955
3904.0,11.9628965366
3905.0,11.9451114918
3906.0,11.9544215442
3907.0,12.094524028
3908.0,12.2220689735
3909.0,12.2713943471
3910.0,12.3548108623
3911.0,12.4046090219
3912.0,12.6686940376
3913.0,12.6742303437
3914.0,12.8694756354
3915.0,12.7922884107
3916.0,13.0866878544
3917.0,13.1479865111
3918.0,13.3041567606
3919.0,13.4750489503
3920.0,13.5036746417
3921.0,13.6982725667
3922.0,13.7398246446
3923.0,14.0296810699
3924.0,13.8586447222
3925.0,13.7973042453
3926.0,13.8154822319
3927.0,13.7665404744
3928.0,13.710704947
3929.0,13.6412046232
3930.0,13.4693836433
3931.0,13.3189271414
3932.0,13.290067144
3933.0,13.1675984867
3934.0,13.0939823417
3935.0,12.8362639838
3936.0,12.6997279252
3937.0,12.7256153142
3938.0,12.5750524245
3939.0,12.3942934119
3940.0,12.1212536695
3941.0,12.0829068864
3942.0,12.0092350514
3943.0,12.0252827951
3944.0,12.0247638077
3945.0,12.1638800236
3946.0,12.1767063241
3947.0,12.1652448855
3948.0,12.1921138286
3949.0,12.1378699808
3950.0,12.2861560476
3951.0,12.3518978132
3952.0,12.3891208052
3953.0,12.3497864898
3954.0,12.3340762139
3955.0,12.5163490949
3956.0,12.5220074949
3957.0,12.4509745452
3958.0,12.5589840323
3959.0,12.6342309382
3960.0,12.6544681425
3961.0,12.7830528237
3962.0,12.6982892494
3963.0,12.9044093309
3964.0,12.8192703135
3965.0,12.9412499605
3966.0,12.8984146159
3967.0,13.0519326994
3968.0,13.0819433936
3969.0,13.1017335274
3970.0,13.1683257246
3971.0,13.300449015
3972.0,13.3970799169
3973.0,13.4545160761
3974.0,13.5956615802
3975.0,13.610620114
3976.0,13.7264134056
3977.0,13.8440677512
3978.0,13.8932065426
3979.0,13.8448346787
3980.0,13.9100125823
3981.0,14.0336310243
3982.0,14.1847616876
3983.0,14.2320216806
3984.0,14.37761402
3985.0,14.3947845827
3986.0,14.599949042
3987.0,14.7138804828
3988.0,14.791378635
3989.0,14.8811669517
3990.0,14.9169614709
3991.0,15.0732029408
3992.0,15.2380851502
3993.0,15.4661130528
3994.0,15.5165779647
3995.0,15.6422930678
3996.0,15.8392518923
3997.0,15.9790186514
3998.0,16.0302577512
3999.0,16.2353539362
4000.0,16.4354282704
4001.0,16.614087814
4002.0,16.5277138
4003.0,16.439029812
4004.0,16.3654493736
4005.0,16.2835401553
4006.0,16.1904550201
4007.0,16.1686827483
4008.0,16.0765045915
4009.0,16.0029230943
4010.0,15.8019844194
4011.0,15.6803782749
4012.0,15.5315249299
4013.0,15.4591496809
4014.0,15.2893467212
4015.0,15.29444584
4016.0,15.1600364242
4017.0,14.8669202206
4018.0,14.8176092686
4019.0,14.5517797272
4020.0,14.2749722513
4021.0,14.1390679868
4022.0,13.8727431915
4023.0,13.6111451725
4024.0,13.5057730032
4025.0,13.1965208622
4026.0,12.7613616959
4027.0,12.5014071306
4028.0,12.2952434002
4029.0,11.9552400589
4030.0,11.5549253499
4031.0,11.1392222297
4032.0,10.9759554236
4033.0,11.0177295563
4034.0,11.0042997493
4035.0,11.0382507298
4036.0,11.2206787722
4037.0,11.2105356378
4038.0,11.3564327093
4039.0,11.2315655225
4040.0,11.3465379868
4041.0,11.4043441936
4042.0,11.4521080895
4043.0,11.5558658342
4044.0,11.6796929588
4045.0,11.6845267673
4046.0,11.7426500842
4047.0,11.9032127448
4048.0,11.9078347015
4049.0,12.0748365493
4050.0,12.14580343
4051.0,12.1856821654
4052.0,12.3130407873
4053.0,12.3982096764
4054.0,12.4963389106
4055.0,12.6569095281
4056.0,12.6870357597
4057.0,12.7331074078
4058.0,12.8952820453
4059.0,13.078118068
4060.0,13.2885212124
4061.0,13.4262970582
4062.0,13.5241468496
4063.0,13.537579376
4064.0,13.8190124011
4065.0,13.8405016107
4066.0,14.149376922
4067.0,14.3185805289
4068.0,14.3000250995
4069.0,14.3124882827
4070.0,14.1425758547
4071.0,14.0434056286
4072.0,14.068239074
4073.0,13.9300840377
4074.0,13.8413680513
4075.0,13.7365715498
4076.0,13.5432778753
4077.0,13.5470517354
4078.0,13.475337784
4079.0,13.2558919199
4080.0,13.1761557651
4081.0,13.0401599492
4082.0,12.7734770054
4083.0,12.785063677
4084.0,12.5801987676
4085.0,12.2611052997
4086.0,12.3988610406
4087.0,12.2663875884
4088.0,12.3504131594
4089.0,12.4599258369
4090.0,12.4096227702
4091.0,12.5707651845
4092.0,12.4504840259
4093.0,12.6198413354
4094.0,12.6856830936
4095.0,12.6099165876
4096.0,12.677869079
4097.0,12.6612216996
4098.0,12.7681428641
4099.0,12.7528905896
4100.0,12.8945720843
4101.0,12.9105104843
4102.0,12.9272378316
4103.0,12.9585383878
4104.0,12.9067812499
4105.0,12.9867245209
4106.0,13.1208278051
4107.0,13.1461468999
4108.0,13.139832683
4109.0,13.2260493042
4110.0,13.3801341778
4111.0,13.4307254366
4112.0,13.4310403696
4113.0,13.4118381779
4114.0,13.5906994061
4115.0,13.5831319227
4116.0,13.6824521602
4117.0,13.7755435583
4118.0,13.7404211448
4119.0,13.7644480965
4120.0,13.9171219414
4121.0,14.0822276654
4122.0,14.0772980844
4123.0,14.1802742286
4124.0,14.1491507322
4125.0,14.2599915555
4126.0,14.4309693968
4127.0,14.4542967538
4128.0,14.6605582048
4129.0,14.6469941082
4130.0,14.7938996771
4131.0,14.8904030792
4132.0,14.8841664505
4133.0,14.9987486185
4134.0,15.0874778468
4135.0,15.243001996
4136.0,15.3966587091
4137.0,15.4951934945
4138.0,15.5495662704
4139.0,15.8157122768
4140.0,15.8098336473
4141.0,15.9636627757
4142.0,16.0135335088
4143.0,16.2434418154
4144.0,16.3564248965
4145.0,16.5630034204
4146.0,16.4364379005
4147.0,16.5370717191
4148.0,16.4319958582
4149.0,16.3020112398
4150.0,16.163625577
4151.0,16.0857026393
4152.0,16.0946754383
4153.0,15.8491816992
4154.0,15.7718228061
4155.0,15.7387722206
4156.0,15.6417593736
4157.0,15.3584671447
4158.0,15.2860373255
4159.0,15.091113274
4160.0,15.0125162082
4161.0,14.7721353799
4162.0,14.7096390875
4163.0,14.3247331581
4164.0,14.1601193082
4165.0,13.9166267909
4166.0,13.669331231
4167.0,13.5300847873
4168.0,13.09394848
4169.0,12.8272295923
4170.0,12.4646484052
4171.0,12.2398250012
4172.0,11.951088701
4173.0,11.4363762954
4174.0,11.0814757695
4175.0,10.5821641608
4176.0,11.1085156996
4177.0,11.0387211124
4178.0,11.208969937
4179.0,11.2978017957
4180.0,11.3099216053
4181.0,11.2978130339
4182.0,11.3527496812
4183.0,11.473576161
4184.0,11.5421626558
4185.0,11.5942831111
4186.0,11.5560249148
4187.0,11.7250978226
4188.0,11.7663522825
4189.0,11.7671297725
4190.0,11.7847817107
4191.0,11.9562407339
4192.0,12.0973168883
4193.0,12.1671090986
4194.0,12.2106089671
4195.0,12.1795107634
4196.0,12.3884000533
4197.0,12.4767456766
4198.0,12.5841471809
4199.0,12.5952967327
4200.0,12.7933318449
4201.0,12.7819083266
4202.0,12.9331778781
4203.0,13.1212547012
4204.0,13.2229309639
4205.0,13.3458162131
4206.0,13.4621798659
4207.0,13.6675082477
4208.0,13.8279021903
4209.0,13.9235588542
4210.0,14.1695612618
4211.0,14.3770290311
4212.0,14.2128589554
4213.0,14.1855856735
4214.0,14.0989267362
4215.0,13.9770111975
4216.0,14.0367674862
4217.0,13.9062098308
4218.0,13.7868246355
4219.0,13.6010715465
4220.0,13.5783089508
4221.0,13.5319923706
4222.0,13.4236554926
4223.0,13.2629812124
4224.0,13.0510585549
4225.0,12.8550502367
4226.0,12.8506274956
4227.0,12.6277815223
4228.0,12.4930067257
4229.0,12.2502232653
4230.0,12.3109895461
4231.0,12.2673607009
4232.0,12.210768381
4233.0,12.3443848856
4234.0,12.3536968007
4235.0,12.2936764947
4236.0,12.4124927966
4237.0,12.4048235717
4238.0,12.5297687841
4239.0,12.5518645888
4240.0,12.5981533947
4241.0,12.499185855
4242.0,12.6491166018
4243.0,12.7691100098
4244.0,12.7585873672
4245.0,12.7219439063
4246.0,12.8171295152
4247.0,12.8857618193
4248.0,12.9525386909
4249.0,12.934508985
4250.0,13.0760287944
4251.0,13.0284675169
4252.0,13.0739784406
4253.0,13.1102312293
4254.0,13.1924495894
4255.0,13.3258295523
4256.0,13.298275635
4257.0,13.3652961934
4258.0,13.4997111264
4259.0,13.5766907343
4260.0,13.5615139605
4261.0,13.7130236159
4262.0,13.7826659355
4263.0,13.7965995795
4264.0,13.9002432515
4265.0,13.9390360849
4266.0,13.9332059569
4267.0,14.066921987
4268.0,14.1882860273
4269.0,14.3268638832
4270.0,14.3924639679
4271.0,14.4305983965
4272.0,14.4401866191
4273.0,14.5646749353
4274.0,14.7798191342
4275.0,14.8874981126
4276.0,14.8563656688
4277.0,14.9760103246
4278.0,15.0374985646
4279.0,15.2706294641
4280.0,15.2766909251
4281.0,15.4250394473
4282.0,15.6032053126
4283.0,15.7632532058
4284.0,15.8905911524
4285.0,16.0232022117
4286.0,16.085886485
4287.0,16.2098910105
4288.0,16.388928295
4289.0,16.4577594459
4290.0,16.5723701384
4291.0,16.4097918993
4292.0,16.399319004
4293.0,16.2942507658
4294.0,16.2784867293
4295.0,16.1958329943
4296.0,15.9676093162
4297.0,15.9117741422
4298.0,15.8937872412
4299.0,15.7528783738
4300.0,15.6776214203
4301.0,15.4931419338
4302.0,15.3516885902
4303.0,15.1965479131
4304.0,15.01256322
4305.0,14.8421429755
4306.0,14.6272497136
4307.0,14.4462049483
4308.0,14.2440241791
4309.0,14.0790436304
4310.0,13.826079162
4311.0,13.5118215675
4312.0,13.2752648351
4313.0,13.1013865178
4314.0,12.6482985571
4315.0,12.3751966304
4316.0,12.0906924905
4317.0,11.6821778656
4318.0,11.1852921122
4319.0,10.8594842178
